\relax 
\providecommand\hyper@newdestlabel[2]{}
\@writefile{toc}{\contentsline {section}{\numberline {6.3}Quantitative Evaluation of Neural Network Performance}{26}{section.66}}
\@writefile{toc}{\contentsline {subsection}{\numberline {6.3.1}Comparison of the Reference Image versus the NN Classification}{26}{subsection.67}}
\newlabel{formalcomsec}{{6.3.1}{26}{Comparison of the Reference Image versus the NN Classification}{subsection.67}{}}
\@writefile{lof}{\contentsline {figure}{\numberline {6.2}{\ignorespaces Example of the cells, unaligned due to the threshold setting\relax }}{27}{figure.caption.71}}
\newlabel{unalth}{{6.2}{27}{Example of the cells, unaligned due to the threshold setting\relax }{figure.caption.71}{}}
\@writefile{lof}{\contentsline {subfigure}{\numberline{(a)}{\ignorespaces {NN output combined with the reference output: green represents the overlapping regions, yellow false-positive regions and blue false-negative regions. The matched centers are marked green, FP centers are red, and FN centers are blue.}}}{27}{subfigure.2.1}}
\@writefile{toc}{\contentsline {subsection}{\numberline {6.3.2}Experimental Results of the Quantitative Evaluation}{29}{subsection.78}}
\newlabel{kvantsec}{{6.3.2}{29}{Experimental Results of the Quantitative Evaluation}{subsection.78}{}}
\@writefile{lot}{\contentsline {table}{\numberline {6.1}{\ignorespaces Comparison of results using the pixelwise and distance-transform loss based Unets\relax }}{29}{table.caption.79}}
\newlabel{diftab}{{6.1}{29}{Comparison of results using the pixelwise and distance-transform loss based Unets\relax }{table.caption.79}{}}
\newlabel{a}{{6.3a}{30}{Subfigure 6 6.3a}{subfigure.81}{}}
\newlabel{sub@a}{{(a)}{a}{Subfigure 6 6.3a\relax }{subfigure.81}{}}
\newlabel{b}{{6.3b}{30}{Subfigure 6 6.3b}{subfigure.82}{}}
\newlabel{sub@b}{{(b)}{b}{Subfigure 6 6.3b\relax }{subfigure.82}{}}
\@writefile{lof}{\contentsline {figure}{\numberline {6.3}{\ignorespaces Comparison of centers of the nuclei among the neural network output and reference.}}{30}{figure.caption.80}}
\newlabel{porov}{{6.3}{30}{Comparison of centers of the nuclei among the neural network output and reference}{figure.caption.80}{}}
\@writefile{lof}{\contentsline {subfigure}{\numberline{(a)}{\ignorespaces {NN output (distance-transform loss)}}}{30}{subfigure.3.1}}
\@writefile{lof}{\contentsline {subfigure}{\numberline{(b)}{\ignorespaces {NN output (pixel-wise loss)}}}{30}{subfigure.3.2}}
\@writefile{lof}{\contentsline {figure}{\numberline {6.4}{\ignorespaces False positive detection}}{30}{figure.caption.83}}
\newlabel{FPim}{{6.4}{30}{False positive detection}{figure.caption.83}{}}
\@writefile{lof}{\contentsline {subfigure}{\numberline{(a)}{\ignorespaces {NN output (distance-transfrom loss)}}}{30}{subfigure.4.1}}
\@writefile{toc}{\contentsline {subsection}{\numberline {6.3.3}Determination of the Binary Threshold}{31}{subsection.85}}
\newlabel{thresholdsec}{{6.3.3}{31}{Determination of the Binary Threshold}{subsection.85}{}}
\newlabel{optt}{{6.5a}{32}{Subfigure 6 6.5a}{subfigure.88}{}}
\newlabel{sub@optt}{{(a)}{a}{Subfigure 6 6.5a\relax }{subfigure.88}{}}
\newlabel{t05}{{6.5b}{32}{Subfigure 6 6.5b}{subfigure.89}{}}
\newlabel{sub@t05}{{(b)}{b}{Subfigure 6 6.5b\relax }{subfigure.89}{}}
\@writefile{lof}{\contentsline {figure}{\numberline {6.5}{\ignorespaces Example of cells unaligned due to the threshold}}{32}{figure.caption.87}}
\newlabel{comthresh}{{6.5}{32}{Example of cells unaligned due to the threshold}{figure.caption.87}{}}
\@writefile{lof}{\contentsline {subfigure}{\numberline{(a)}{\ignorespaces {the optimal threshold value}}}{32}{subfigure.5.1}}
\@writefile{lof}{\contentsline {subfigure}{\numberline{(b)}{\ignorespaces {the threshold value set to $0.5$}}}{32}{subfigure.5.2}}
\newlabel{ta}{{6.6a}{33}{Subfigure 6 6.6a}{subfigure.91}{}}
\newlabel{sub@ta}{{(a)}{a}{Subfigure 6 6.6a\relax }{subfigure.91}{}}
\newlabel{tb}{{6.6b}{33}{Subfigure 6 6.6b}{subfigure.92}{}}
\newlabel{sub@tb}{{(b)}{b}{Subfigure 6 6.6b\relax }{subfigure.92}{}}
\newlabel{tc}{{6.6c}{33}{Subfigure 6 6.6c}{subfigure.93}{}}
\newlabel{sub@tc}{{(c)}{c}{Subfigure 6 6.6c\relax }{subfigure.93}{}}
\@writefile{lof}{\contentsline {figure}{\numberline {6.6}{\ignorespaces Impact of the underestimating and overestimating of the threshold compared to the optimal one.}}{33}{figure.caption.90}}
\newlabel{threshchange}{{6.6}{33}{Impact of the underestimating and overestimating of the threshold compared to the optimal one}{figure.caption.90}{}}
\@writefile{lof}{\contentsline {subfigure}{\numberline{(a)}{\ignorespaces {threshold = $0.05$}}}{33}{subfigure.6.1}}
\@writefile{lof}{\contentsline {subfigure}{\numberline{(b)}{\ignorespaces {threshold = $0.122$}}}{33}{subfigure.6.2}}
\@writefile{lof}{\contentsline {subfigure}{\numberline{(c)}{\ignorespaces {threshold = $0.5$}}}{33}{subfigure.6.3}}
\newlabel{tROCa}{{6.7a}{34}{Subfigure 6 6.7a}{subfigure.95}{}}
\newlabel{sub@tROCa}{{(a)}{a}{Subfigure 6 6.7a\relax }{subfigure.95}{}}
\@writefile{lof}{\contentsline {figure}{\numberline {6.7}{\ignorespaces Impact of the threshold change on the Dice loss}}{34}{figure.caption.94}}
\newlabel{tROC}{{6.7}{34}{Impact of the threshold change on the Dice loss}{figure.caption.94}{}}
\@writefile{lof}{\contentsline {subfigure}{\numberline{(a)}{\ignorespaces {}}}{34}{subfigure.7.1}}
\@writefile{lot}{\contentsline {table}{\numberline {6.2}{\ignorespaces Impact of the threshold on the neural network based on distance-transform loss\relax }}{34}{table.caption.96}}
\newlabel{toptt}{{6.2}{34}{Impact of the threshold on the neural network based on distance-transform loss\relax }{table.caption.96}{}}
\@writefile{toc}{\contentsline {subsection}{\numberline {6.3.4}False Positives Detection Problem}{35}{subsection.97}}
\newlabel{FPcolsec}{{6.3.4}{35}{False Positives Detection Problem}{subsection.97}{}}
\@writefile{lof}{\contentsline {figure}{\numberline {6.8}{\ignorespaces False positives detection}}{35}{figure.caption.98}}
\newlabel{FP6im}{{6.8}{35}{False positives detection}{figure.caption.98}{}}
\@writefile{lof}{\contentsline {figure}{\numberline {6.9}{\ignorespaces The number of the images with the given range of the false-positives per image\relax }}{36}{figure.caption.99}}
\newlabel{FPhist}{{6.9}{36}{The number of the images with the given range of the false-positives per image\relax }{figure.caption.99}{}}
\@writefile{toc}{\contentsline {subsubsection}{\numberline {6.3.4.1}False Positives Detection Related to the Touching Cells}{36}{subsubsection.100}}
\newlabel{touchnucleisec}{{6.3.4.1}{36}{False Positives Detection Related to the Touching Cells}{subsubsection.100}{}}
\newlabel{manyfpa}{{6.10a}{37}{Subfigure 6 6.10a}{subfigure.102}{}}
\newlabel{sub@manyfpa}{{(a)}{a}{Subfigure 6 6.10a\relax }{subfigure.102}{}}
\@writefile{lof}{\contentsline {figure}{\numberline {6.10}{\ignorespaces Example of many touching nuclei}}{37}{figure.caption.101}}
\newlabel{manyfp}{{6.10}{37}{Example of many touching nuclei}{figure.caption.101}{}}
\@writefile{lof}{\contentsline {subfigure}{\numberline{(a)}{\ignorespaces {the distance-transform neural network output }}}{37}{subfigure.10.1}}
\@writefile{lof}{\contentsline {figure}{\numberline {6.11}{\ignorespaces Many touching cells compared}}{38}{figure.caption.103}}
\newlabel{FPmany}{{6.11}{38}{Many touching cells compared}{figure.caption.103}{}}
\@writefile{toc}{\contentsline {subsection}{\numberline {6.3.5}Dataset Impact on the NN Performance}{38}{subsection.104}}
\newlabel{dataimpactsec}{{6.3.5}{38}{Dataset Impact on the NN Performance}{subsection.104}{}}
\@writefile{lot}{\contentsline {table}{\numberline {6.3}{\ignorespaces Dataset comparison}}{39}{table.caption.105}}
\newlabel{tlarge}{{6.3}{39}{Dataset comparison}{table.caption.105}{}}
\@writefile{toc}{\contentsline {subsection}{\numberline {6.3.6}Further Analysis of the '72h' dataset}{39}{subsection.106}}
\@writefile{toc}{\contentsline {subsection}{\numberline {6.3.7}Possible Improvement of the Classification}{39}{subsection.112}}
\newlabel{posimpsec}{{6.3.7}{39}{Possible Improvement of the Classification}{subsection.112}{}}
\newlabel{hist24}{{6.12a}{40}{Subfigure 6 6.12a}{subfigure.108}{}}
\newlabel{sub@hist24}{{(a)}{a}{Subfigure 6 6.12a\relax }{subfigure.108}{}}
\newlabel{hist72}{{6.12b}{40}{Subfigure 6 6.12b}{subfigure.109}{}}
\newlabel{sub@hist72}{{(b)}{b}{Subfigure 6 6.12b\relax }{subfigure.109}{}}
\newlabel{histbefore}{{6.12c}{40}{Subfigure 6 6.12c}{subfigure.110}{}}
\newlabel{sub@histbefore}{{(c)}{c}{Subfigure 6 6.12c\relax }{subfigure.110}{}}
\newlabel{histonly}{{6.12d}{40}{Subfigure 6 6.12d}{subfigure.111}{}}
\newlabel{sub@histonly}{{(d)}{d}{Subfigure 6 6.12d\relax }{subfigure.111}{}}
\@writefile{lof}{\contentsline {figure}{\numberline {6.12}{\ignorespaces The histograms of false-positive detections on each dataset}}{40}{figure.caption.107}}
\newlabel{histograms}{{6.12}{40}{The histograms of false-positive detections on each dataset}{figure.caption.107}{}}
\@writefile{lof}{\contentsline {subfigure}{\numberline{(a)}{\ignorespaces {The dataset '24h'}}}{40}{subfigure.12.1}}
\@writefile{lof}{\contentsline {subfigure}{\numberline{(b)}{\ignorespaces {The dataset '72h'}}}{40}{subfigure.12.2}}
\@writefile{lof}{\contentsline {subfigure}{\numberline{(c)}{\ignorespaces {The dataset 'before'}}}{40}{subfigure.12.3}}
\@writefile{lof}{\contentsline {subfigure}{\numberline{(d)}{\ignorespaces {The dataset 'only'}}}{40}{subfigure.12.4}}
\@writefile{lof}{\contentsline {figure}{\numberline {6.13}{\ignorespaces The relation between the $\%$ of ommitted images and sensitivity, or precision}}{41}{figure.caption.113}}
\newlabel{qcombined}{{6.13}{41}{The relation between the $\%$ of ommitted images and sensitivity, or precision}{figure.caption.113}{}}
\newlabel{qA}{{6.14a}{42}{Subfigure 6 6.14a}{subfigure.115}{}}
\newlabel{sub@qA}{{(a)}{a}{Subfigure 6 6.14a\relax }{subfigure.115}{}}
\newlabel{qB}{{6.14b}{42}{Subfigure 6 6.14b}{subfigure.116}{}}
\newlabel{sub@qB}{{(b)}{b}{Subfigure 6 6.14b\relax }{subfigure.116}{}}
\@writefile{lof}{\contentsline {figure}{\numberline {6.14}{\ignorespaces The distribution of the number of the worse classified images over the datasets.}}{42}{figure.caption.114}}
\newlabel{quantile}{{6.14}{42}{The distribution of the number of the worse classified images over the datasets}{figure.caption.114}{}}
\@writefile{lof}{\contentsline {subfigure}{\numberline{(a)}{\ignorespaces {}}}{42}{subfigure.14.1}}
\@writefile{lof}{\contentsline {subfigure}{\numberline{(b)}{\ignorespaces {}}}{42}{subfigure.14.2}}
\newlabel{filtA}{{6.15a}{42}{Subfigure 6 6.15a}{subfigure.118}{}}
\newlabel{sub@filtA}{{(a)}{a}{Subfigure 6 6.15a\relax }{subfigure.118}{}}
\newlabel{filtB}{{6.15b}{42}{Subfigure 6 6.15b}{subfigure.119}{}}
\newlabel{sub@filtB}{{(b)}{b}{Subfigure 6 6.15b\relax }{subfigure.119}{}}
\@writefile{lof}{\contentsline {figure}{\numberline {6.15}{\ignorespaces Example of images in $20\%$ quantile of training images descendingly sorted by the false-negatives occurences}}{42}{figure.caption.117}}
\newlabel{filt}{{6.15}{42}{Example of images in $20\%$ quantile of training images descendingly sorted by the false-negatives occurences}{figure.caption.117}{}}
\@writefile{lof}{\contentsline {subfigure}{\numberline{(a)}{\ignorespaces {}}}{42}{subfigure.15.1}}
\@writefile{lof}{\contentsline {subfigure}{\numberline{(b)}{\ignorespaces {}}}{42}{subfigure.15.2}}
\@writefile{toc}{\contentsline {subsubsection}{\numberline {6.3.7.1}Training-set Preprocessing}{43}{subsubsection.120}}
\newlabel{prepomit}{{6.3.7.1}{43}{Training-set Preprocessing}{subsubsection.120}{}}
\@writefile{lot}{\contentsline {table}{\numberline {6.4}{\ignorespaces Dataset comparison with the training set preprocessing\relax }}{43}{table.caption.121}}
\newlabel{telim}{{6.4}{43}{Dataset comparison with the training set preprocessing\relax }{table.caption.121}{}}
\@setckpt{Chapters/Chapter3_2_new}{
\setcounter{page}{44}
\setcounter{equation}{9}
\setcounter{enumi}{2}
\setcounter{enumii}{0}
\setcounter{enumiii}{0}
\setcounter{enumiv}{0}
\setcounter{footnote}{1}
\setcounter{mpfootnote}{0}
\setcounter{part}{0}
\setcounter{chapter}{6}
\setcounter{section}{3}
\setcounter{subsection}{7}
\setcounter{subsubsection}{1}
\setcounter{paragraph}{0}
\setcounter{subparagraph}{0}
\setcounter{figure}{15}
\setcounter{table}{4}
\setcounter{LT@tables}{0}
\setcounter{LT@chunks}{0}
\setcounter{ContinuedFloat}{0}
\setcounter{parentequation}{0}
\setcounter{Item}{14}
\setcounter{Hfootnote}{1}
\setcounter{bookmark@seq@number}{38}
\setcounter{tabx@nest}{0}
\setcounter{listtotal}{0}
\setcounter{listcount}{0}
\setcounter{liststart}{0}
\setcounter{liststop}{0}
\setcounter{citecount}{0}
\setcounter{citetotal}{0}
\setcounter{multicitecount}{0}
\setcounter{multicitetotal}{0}
\setcounter{instcount}{92}
\setcounter{maxnames}{3}
\setcounter{minnames}{1}
\setcounter{maxitems}{3}
\setcounter{minitems}{1}
\setcounter{citecounter}{0}
\setcounter{savedcitecounter}{0}
\setcounter{uniquelist}{0}
\setcounter{uniquename}{0}
\setcounter{refsection}{0}
\setcounter{refsegment}{0}
\setcounter{maxextratitle}{0}
\setcounter{maxextratitleyear}{0}
\setcounter{maxextradate}{0}
\setcounter{maxextraalpha}{0}
\setcounter{abbrvpenalty}{50}
\setcounter{highnamepenalty}{50}
\setcounter{lownamepenalty}{25}
\setcounter{maxparens}{3}
\setcounter{parenlevel}{0}
\setcounter{mincomprange}{10}
\setcounter{maxcomprange}{100000}
\setcounter{mincompwidth}{1}
\setcounter{afterword}{0}
\setcounter{savedafterword}{0}
\setcounter{annotator}{0}
\setcounter{savedannotator}{0}
\setcounter{author}{0}
\setcounter{savedauthor}{0}
\setcounter{bookauthor}{0}
\setcounter{savedbookauthor}{0}
\setcounter{commentator}{0}
\setcounter{savedcommentator}{0}
\setcounter{editor}{0}
\setcounter{savededitor}{0}
\setcounter{editora}{0}
\setcounter{savededitora}{0}
\setcounter{editorb}{0}
\setcounter{savededitorb}{0}
\setcounter{editorc}{0}
\setcounter{savededitorc}{0}
\setcounter{foreword}{0}
\setcounter{savedforeword}{0}
\setcounter{holder}{0}
\setcounter{savedholder}{0}
\setcounter{introduction}{0}
\setcounter{savedintroduction}{0}
\setcounter{namea}{0}
\setcounter{savednamea}{0}
\setcounter{nameb}{0}
\setcounter{savednameb}{0}
\setcounter{namec}{0}
\setcounter{savednamec}{0}
\setcounter{translator}{0}
\setcounter{savedtranslator}{0}
\setcounter{shortauthor}{0}
\setcounter{savedshortauthor}{0}
\setcounter{shorteditor}{0}
\setcounter{savedshorteditor}{0}
\setcounter{labelname}{0}
\setcounter{savedlabelname}{0}
\setcounter{institution}{0}
\setcounter{savedinstitution}{0}
\setcounter{lista}{0}
\setcounter{savedlista}{0}
\setcounter{listb}{0}
\setcounter{savedlistb}{0}
\setcounter{listc}{0}
\setcounter{savedlistc}{0}
\setcounter{listd}{0}
\setcounter{savedlistd}{0}
\setcounter{liste}{0}
\setcounter{savedliste}{0}
\setcounter{listf}{0}
\setcounter{savedlistf}{0}
\setcounter{location}{0}
\setcounter{savedlocation}{0}
\setcounter{organization}{0}
\setcounter{savedorganization}{0}
\setcounter{origlocation}{0}
\setcounter{savedoriglocation}{0}
\setcounter{origpublisher}{0}
\setcounter{savedorigpublisher}{0}
\setcounter{publisher}{0}
\setcounter{savedpublisher}{0}
\setcounter{language}{0}
\setcounter{savedlanguage}{0}
\setcounter{origlanguage}{0}
\setcounter{savedoriglanguage}{0}
\setcounter{pageref}{0}
\setcounter{savedpageref}{0}
\setcounter{textcitecount}{0}
\setcounter{textcitetotal}{0}
\setcounter{textcitemaxnames}{0}
\setcounter{biburlnumpenalty}{0}
\setcounter{biburlucpenalty}{0}
\setcounter{biburllcpenalty}{0}
\setcounter{smartand}{1}
\setcounter{bbx:relatedcount}{0}
\setcounter{bbx:relatedtotal}{0}
\setcounter{KVtest}{0}
\setcounter{subfigure}{0}
\setcounter{subfigure@save}{2}
\setcounter{lofdepth}{1}
\setcounter{subtable}{0}
\setcounter{subtable@save}{0}
\setcounter{lotdepth}{1}
\setcounter{AM@survey}{0}
\setcounter{float@type}{4}
\setcounter{section@level}{3}
}
