\relax 
\providecommand\hyper@newdestlabel[2]{}
\@writefile{toc}{\contentsline {chapter}{\numberline {8}Evaluation of the Drug Effects}{63}{chapter.197}}
\@writefile{lof}{\addvspace {10\p@ }}
\@writefile{lot}{\addvspace {10\p@ }}
\newlabel{svm}{{8}{63}{Evaluation of the Drug Effects}{chapter.197}{}}
\newlabel{top1}{{8.1a}{64}{Subfigure 8 8.1a}{subfigure.199}{}}
\newlabel{sub@top1}{{(a)}{a}{Subfigure 8 8.1a\relax }{subfigure.199}{}}
\newlabel{top2}{{8.1b}{64}{Subfigure 8 8.1b}{subfigure.200}{}}
\newlabel{sub@top2}{{(b)}{b}{Subfigure 8 8.1b\relax }{subfigure.200}{}}
\newlabel{top3}{{8.1c}{64}{Subfigure 8 8.1c}{subfigure.201}{}}
\newlabel{sub@top3}{{(c)}{c}{Subfigure 8 8.1c\relax }{subfigure.201}{}}
\newlabel{da1}{{8.1d}{64}{Subfigure 8 8.1d}{subfigure.202}{}}
\newlabel{sub@da1}{{(d)}{d}{Subfigure 8 8.1d\relax }{subfigure.202}{}}
\newlabel{dau2}{{8.1e}{64}{Subfigure 8 8.1e}{subfigure.203}{}}
\newlabel{sub@dau2}{{(e)}{e}{Subfigure 8 8.1e\relax }{subfigure.203}{}}
\newlabel{dau3}{{8.1f}{64}{Subfigure 8 8.1f}{subfigure.204}{}}
\newlabel{sub@dau3}{{(f)}{f}{Subfigure 8 8.1f\relax }{subfigure.204}{}}
\newlabel{eto1}{{8.1g}{64}{Subfigure 8 8.1g}{subfigure.205}{}}
\newlabel{sub@eto1}{{(g)}{g}{Subfigure 8 8.1g\relax }{subfigure.205}{}}
\newlabel{eto2}{{8.1h}{64}{Subfigure 8 8.1h}{subfigure.206}{}}
\newlabel{sub@eto2}{{(h)}{h}{Subfigure 8 8.1h\relax }{subfigure.206}{}}
\newlabel{eto3}{{8.1i}{64}{Subfigure 8 8.1i}{subfigure.207}{}}
\newlabel{sub@eto3}{{(i)}{i}{Subfigure 8 8.1i\relax }{subfigure.207}{}}
\@writefile{lof}{\contentsline {figure}{\numberline {8.1}{\ignorespaces Comparison of different treatments}}{64}{figure.caption.198}}
\newlabel{diftreat}{{8.1}{64}{Comparison of different treatments}{figure.caption.198}{}}
\@writefile{lof}{\contentsline {subfigure}{\numberline{(a)}{\ignorespaces {}}}{64}{subfigure.1.1}}
\@writefile{lof}{\contentsline {subfigure}{\numberline{(b)}{\ignorespaces {}}}{64}{subfigure.1.2}}
\@writefile{lof}{\contentsline {subfigure}{\numberline{(c)}{\ignorespaces {}}}{64}{subfigure.1.3}}
\@writefile{lof}{\contentsline {subfigure}{\numberline{(d)}{\ignorespaces {}}}{64}{subfigure.1.4}}
\@writefile{lof}{\contentsline {subfigure}{\numberline{(e)}{\ignorespaces {}}}{64}{subfigure.1.5}}
\@writefile{lof}{\contentsline {subfigure}{\numberline{(f)}{\ignorespaces {}}}{64}{subfigure.1.6}}
\@writefile{lof}{\contentsline {subfigure}{\numberline{(g)}{\ignorespaces {}}}{64}{subfigure.1.7}}
\@writefile{lof}{\contentsline {subfigure}{\numberline{(h)}{\ignorespaces {}}}{64}{subfigure.1.8}}
\@writefile{lof}{\contentsline {subfigure}{\numberline{(i)}{\ignorespaces {}}}{64}{subfigure.1.9}}
\newlabel{dmso1}{{8.2a}{65}{Subfigure 8 8.2a}{subfigure.209}{}}
\newlabel{sub@dmso1}{{(a)}{a}{Subfigure 8 8.2a\relax }{subfigure.209}{}}
\newlabel{dmso2}{{8.2b}{65}{Subfigure 8 8.2b}{subfigure.210}{}}
\newlabel{sub@dmso2}{{(b)}{b}{Subfigure 8 8.2b\relax }{subfigure.210}{}}
\newlabel{dmso3}{{8.2c}{65}{Subfigure 8 8.2c}{subfigure.211}{}}
\newlabel{sub@dmso3}{{(c)}{c}{Subfigure 8 8.2c\relax }{subfigure.211}{}}
\newlabel{not1}{{8.2d}{65}{Subfigure 8 8.2d}{subfigure.212}{}}
\newlabel{sub@not1}{{(d)}{d}{Subfigure 8 8.2d\relax }{subfigure.212}{}}
\newlabel{not2}{{8.2e}{65}{Subfigure 8 8.2e}{subfigure.213}{}}
\newlabel{sub@not2}{{(e)}{e}{Subfigure 8 8.2e\relax }{subfigure.213}{}}
\newlabel{not3}{{8.2f}{65}{Subfigure 8 8.2f}{subfigure.214}{}}
\newlabel{sub@not3}{{(f)}{f}{Subfigure 8 8.2f\relax }{subfigure.214}{}}
\@writefile{lof}{\contentsline {figure}{\numberline {8.2}{\ignorespaces Comparison of different treatments cont.}}{65}{figure.caption.208}}
\newlabel{diftreat2}{{8.2}{65}{Comparison of different treatments cont}{figure.caption.208}{}}
\@writefile{lof}{\contentsline {subfigure}{\numberline{(a)}{\ignorespaces {}}}{65}{subfigure.2.1}}
\@writefile{lof}{\contentsline {subfigure}{\numberline{(b)}{\ignorespaces {}}}{65}{subfigure.2.2}}
\@writefile{lof}{\contentsline {subfigure}{\numberline{(c)}{\ignorespaces {}}}{65}{subfigure.2.3}}
\@writefile{lof}{\contentsline {subfigure}{\numberline{(d)}{\ignorespaces {}}}{65}{subfigure.2.4}}
\@writefile{lof}{\contentsline {subfigure}{\numberline{(e)}{\ignorespaces {}}}{65}{subfigure.2.5}}
\@writefile{lof}{\contentsline {subfigure}{\numberline{(f)}{\ignorespaces {}}}{65}{subfigure.2.6}}
\@writefile{toc}{\contentsline {section}{\numberline {8.1}Preprocessing}{65}{section.215}}
\newlabel{preprocsec}{{8.1}{65}{Preprocessing}{section.215}{}}
\newlabel{orig_wat1}{{8.3a}{66}{Subfigure 8 8.3a}{subfigure.217}{}}
\newlabel{sub@orig_wat1}{{(a)}{a}{Subfigure 8 8.3a\relax }{subfigure.217}{}}
\newlabel{wat1}{{8.3b}{66}{Subfigure 8 8.3b}{subfigure.218}{}}
\newlabel{sub@wat1}{{(b)}{b}{Subfigure 8 8.3b\relax }{subfigure.218}{}}
\newlabel{orig_wat2}{{8.3c}{66}{Subfigure 8 8.3c}{subfigure.219}{}}
\newlabel{sub@orig_wat2}{{(c)}{c}{Subfigure 8 8.3c\relax }{subfigure.219}{}}
\newlabel{wat2}{{8.3d}{66}{Subfigure 8 8.3d}{subfigure.220}{}}
\newlabel{sub@wat2}{{(d)}{d}{Subfigure 8 8.3d\relax }{subfigure.220}{}}
\newlabel{orig_wat3}{{8.3e}{66}{Subfigure 8 8.3e}{subfigure.221}{}}
\newlabel{sub@orig_wat3}{{(e)}{e}{Subfigure 8 8.3e\relax }{subfigure.221}{}}
\newlabel{wat3}{{8.3f}{66}{Subfigure 8 8.3f}{subfigure.222}{}}
\newlabel{sub@wat3}{{(f)}{f}{Subfigure 8 8.3f\relax }{subfigure.222}{}}
\@writefile{lof}{\contentsline {figure}{\numberline {8.3}{\ignorespaces Classification accuracy when changing regularization constant}}{66}{figure.caption.216}}
\newlabel{watershedsplit}{{8.3}{66}{Classification accuracy when changing regularization constant}{figure.caption.216}{}}
\@writefile{lof}{\contentsline {subfigure}{\numberline{(a)}{\ignorespaces {Original segmentation (zoomed in)}}}{66}{subfigure.3.1}}
\@writefile{lof}{\contentsline {subfigure}{\numberline{(b)}{\ignorespaces {Watershed preprocessing (zoomed in)}}}{66}{subfigure.3.2}}
\@writefile{lof}{\contentsline {subfigure}{\numberline{(c)}{\ignorespaces {Original segmentation }}}{66}{subfigure.3.3}}
\@writefile{lof}{\contentsline {subfigure}{\numberline{(d)}{\ignorespaces {Watershed preprocessing }}}{66}{subfigure.3.4}}
\@writefile{lof}{\contentsline {subfigure}{\numberline{(e)}{\ignorespaces {Original segmentation}}}{66}{subfigure.3.5}}
\@writefile{lof}{\contentsline {subfigure}{\numberline{(f)}{\ignorespaces {Watershed preprocessing}}}{66}{subfigure.3.6}}
\@writefile{toc}{\contentsline {section}{\numberline {8.2}Feature Extraction}{67}{section.223}}
\newlabel{featuresec}{{8.2}{67}{Feature Extraction}{section.223}{}}
\newlabel{area}{{1}{67}{Feature Extraction}{Item.224}{}}
\newlabel{ratio}{{5}{68}{Feature Extraction}{Item.228}{}}
\@writefile{toc}{\contentsline {section}{\numberline {8.3}Classifier Training}{68}{section.229}}
\newlabel{svmtrain}{{8.3}{68}{Classifier Training}{section.229}{}}
\@writefile{lof}{\contentsline {figure}{\numberline {8.4}{\ignorespaces Feature selection}}{70}{figure.caption.230}}
\newlabel{featuresim}{{8.4}{70}{Feature selection}{figure.caption.230}{}}
\newlabel{rbf1}{{8.5a}{70}{Subfigure 8 8.5a}{subfigure.232}{}}
\newlabel{sub@rbf1}{{(a)}{a}{Subfigure 8 8.5a\relax }{subfigure.232}{}}
\newlabel{poly1}{{8.5b}{70}{Subfigure 8 8.5b}{subfigure.233}{}}
\newlabel{sub@poly1}{{(b)}{b}{Subfigure 8 8.5b\relax }{subfigure.233}{}}
\@writefile{lof}{\contentsline {figure}{\numberline {8.5}{\ignorespaces Regularization impact on SVM}}{70}{figure.caption.231}}
\newlabel{Cim}{{8.5}{70}{Regularization impact on SVM}{figure.caption.231}{}}
\@writefile{lof}{\contentsline {subfigure}{\numberline{(a)}{\ignorespaces {RBF kernel}}}{70}{subfigure.5.1}}
\@writefile{lof}{\contentsline {subfigure}{\numberline{(b)}{\ignorespaces {Poylynomial kernel}}}{70}{subfigure.5.2}}
\@writefile{lof}{\contentsline {figure}{\numberline {8.6}{\ignorespaces Polynomial kernel}}{70}{figure.caption.234}}
\newlabel{coef0im}{{8.6}{70}{Polynomial kernel}{figure.caption.234}{}}
\@writefile{lot}{\contentsline {table}{\numberline {8.1}{\ignorespaces Pairwise classification}}{71}{table.caption.235}}
\newlabel{svmpairwise}{{8.1}{71}{Pairwise classification}{table.caption.235}{}}
\newlabel{before}{{8.7a}{71}{Subfigure 8 8.7a}{subfigure.237}{}}
\newlabel{sub@before}{{(a)}{a}{Subfigure 8 8.7a\relax }{subfigure.237}{}}
\newlabel{dau24}{{8.7b}{71}{Subfigure 8 8.7b}{subfigure.238}{}}
\newlabel{sub@dau24}{{(b)}{b}{Subfigure 8 8.7b\relax }{subfigure.238}{}}
\@writefile{lof}{\contentsline {figure}{\numberline {8.7}{\ignorespaces Impact of the Daunorubicin treatment after 24 hours}}{71}{figure.caption.236}}
\newlabel{dauvsno}{{8.7}{71}{Impact of the Daunorubicin treatment after 24 hours}{figure.caption.236}{}}
\@writefile{lof}{\contentsline {subfigure}{\numberline{(a)}{\ignorespaces {Nuclei before the treatment application}}}{71}{subfigure.7.1}}
\@writefile{lof}{\contentsline {subfigure}{\numberline{(b)}{\ignorespaces {Nuclei 24 hours after the Daunorubicin application}}}{71}{subfigure.7.2}}
\@writefile{lof}{\contentsline {figure}{\numberline {8.8}{\ignorespaces Classes occurences}}{72}{figure.caption.239}}
\newlabel{occurclasses}{{8.8}{72}{Classes occurences}{figure.caption.239}{}}
\@setckpt{Chapters/ChapterSVM}{
\setcounter{page}{73}
\setcounter{equation}{0}
\setcounter{enumi}{5}
\setcounter{enumii}{0}
\setcounter{enumiii}{0}
\setcounter{enumiv}{0}
\setcounter{footnote}{0}
\setcounter{mpfootnote}{0}
\setcounter{part}{0}
\setcounter{chapter}{8}
\setcounter{section}{3}
\setcounter{subsection}{0}
\setcounter{subsubsection}{0}
\setcounter{paragraph}{0}
\setcounter{subparagraph}{0}
\setcounter{figure}{8}
\setcounter{table}{1}
\setcounter{LT@tables}{0}
\setcounter{LT@chunks}{0}
\setcounter{ContinuedFloat}{0}
\setcounter{parentequation}{0}
\setcounter{Item}{27}
\setcounter{Hfootnote}{4}
\setcounter{bookmark@seq@number}{51}
\setcounter{tabx@nest}{0}
\setcounter{listtotal}{0}
\setcounter{listcount}{0}
\setcounter{liststart}{0}
\setcounter{liststop}{0}
\setcounter{citecount}{0}
\setcounter{citetotal}{0}
\setcounter{multicitecount}{0}
\setcounter{multicitetotal}{0}
\setcounter{instcount}{118}
\setcounter{maxnames}{3}
\setcounter{minnames}{1}
\setcounter{maxitems}{3}
\setcounter{minitems}{1}
\setcounter{citecounter}{0}
\setcounter{savedcitecounter}{0}
\setcounter{uniquelist}{0}
\setcounter{uniquename}{0}
\setcounter{refsection}{0}
\setcounter{refsegment}{0}
\setcounter{maxextratitle}{0}
\setcounter{maxextratitleyear}{0}
\setcounter{maxextradate}{0}
\setcounter{maxextraalpha}{0}
\setcounter{abbrvpenalty}{50}
\setcounter{highnamepenalty}{50}
\setcounter{lownamepenalty}{25}
\setcounter{maxparens}{3}
\setcounter{parenlevel}{0}
\setcounter{mincomprange}{10}
\setcounter{maxcomprange}{100000}
\setcounter{mincompwidth}{1}
\setcounter{afterword}{0}
\setcounter{savedafterword}{0}
\setcounter{annotator}{0}
\setcounter{savedannotator}{0}
\setcounter{author}{0}
\setcounter{savedauthor}{0}
\setcounter{bookauthor}{0}
\setcounter{savedbookauthor}{0}
\setcounter{commentator}{0}
\setcounter{savedcommentator}{0}
\setcounter{editor}{0}
\setcounter{savededitor}{0}
\setcounter{editora}{0}
\setcounter{savededitora}{0}
\setcounter{editorb}{0}
\setcounter{savededitorb}{0}
\setcounter{editorc}{0}
\setcounter{savededitorc}{0}
\setcounter{foreword}{0}
\setcounter{savedforeword}{0}
\setcounter{holder}{0}
\setcounter{savedholder}{0}
\setcounter{introduction}{0}
\setcounter{savedintroduction}{0}
\setcounter{namea}{0}
\setcounter{savednamea}{0}
\setcounter{nameb}{0}
\setcounter{savednameb}{0}
\setcounter{namec}{0}
\setcounter{savednamec}{0}
\setcounter{translator}{0}
\setcounter{savedtranslator}{0}
\setcounter{shortauthor}{0}
\setcounter{savedshortauthor}{0}
\setcounter{shorteditor}{0}
\setcounter{savedshorteditor}{0}
\setcounter{labelname}{0}
\setcounter{savedlabelname}{0}
\setcounter{institution}{0}
\setcounter{savedinstitution}{0}
\setcounter{lista}{0}
\setcounter{savedlista}{0}
\setcounter{listb}{0}
\setcounter{savedlistb}{0}
\setcounter{listc}{0}
\setcounter{savedlistc}{0}
\setcounter{listd}{0}
\setcounter{savedlistd}{0}
\setcounter{liste}{0}
\setcounter{savedliste}{0}
\setcounter{listf}{0}
\setcounter{savedlistf}{0}
\setcounter{location}{0}
\setcounter{savedlocation}{0}
\setcounter{organization}{0}
\setcounter{savedorganization}{0}
\setcounter{origlocation}{0}
\setcounter{savedoriglocation}{0}
\setcounter{origpublisher}{0}
\setcounter{savedorigpublisher}{0}
\setcounter{publisher}{0}
\setcounter{savedpublisher}{0}
\setcounter{language}{0}
\setcounter{savedlanguage}{0}
\setcounter{origlanguage}{0}
\setcounter{savedoriglanguage}{0}
\setcounter{pageref}{0}
\setcounter{savedpageref}{0}
\setcounter{textcitecount}{0}
\setcounter{textcitetotal}{0}
\setcounter{textcitemaxnames}{0}
\setcounter{biburlnumpenalty}{0}
\setcounter{biburlucpenalty}{0}
\setcounter{biburllcpenalty}{0}
\setcounter{smartand}{1}
\setcounter{bbx:relatedcount}{0}
\setcounter{bbx:relatedtotal}{0}
\setcounter{KVtest}{0}
\setcounter{subfigure}{0}
\setcounter{subfigure@save}{2}
\setcounter{lofdepth}{1}
\setcounter{subtable}{0}
\setcounter{subtable@save}{0}
\setcounter{lotdepth}{1}
\setcounter{AM@survey}{0}
\setcounter{float@type}{4}
\setcounter{pp@next@reset}{0}
\setcounter{section@level}{1}
}
