\relax 
\providecommand\hyper@newdestlabel[2]{}
\@writefile{toc}{\contentsline {chapter}{\numberline {5}Fluorescence Images Segmentation}{15}{chapter.31}}
\@writefile{lof}{\addvspace {10\p@ }}
\@writefile{lot}{\addvspace {10\p@ }}
\newlabel{segmentationchapter}{{5}{15}{Fluorescence Images Segmentation}{chapter.31}{}}
\@writefile{toc}{\contentsline {section}{\numberline {5.1}Otsu Segmentation}{15}{section.32}}
\newlabel{otsu}{{5.1}{15}{Otsu Segmentation}{section.32}{}}
\@writefile{toc}{\contentsline {subsection}{\numberline {5.1.1}Results}{15}{subsection.33}}
\@writefile{toc}{\contentsline {section}{\numberline {5.2}Mean Thresholding}{16}{section.34}}
\newlabel{meanthresh}{{5.2}{16}{Mean Thresholding}{section.34}{}}
\@writefile{toc}{\contentsline {subsection}{\numberline {5.2.1}Results}{16}{subsection.35}}
\@writefile{toc}{\contentsline {section}{\numberline {5.3}Quantile Threshold}{16}{section.36}}
\newlabel{quantsec}{{5.3}{16}{Quantile Threshold}{section.36}{}}
\@writefile{toc}{\contentsline {subsection}{\numberline {5.3.1}Results}{16}{subsection.37}}
\@writefile{toc}{\contentsline {section}{\numberline {5.4}Combination of Mean and Quantile Thresholds}{17}{section.38}}
\newlabel{combsec}{{5.4}{17}{Combination of Mean and Quantile Thresholds}{section.38}{}}
\@writefile{toc}{\contentsline {subsection}{\numberline {5.4.1}Results}{17}{subsection.39}}
\@writefile{toc}{\contentsline {section}{\numberline {5.5}Maximally Stable Extremal Regions}{17}{section.40}}
\@writefile{toc}{\contentsline {subsection}{\numberline {5.5.1}Results}{17}{subsection.41}}
\@writefile{toc}{\contentsline {section}{\numberline {5.6}Fixed Global Threshold}{17}{section.42}}
\newlabel{globalsec}{{5.6}{17}{Fixed Global Threshold}{section.42}{}}
\@writefile{toc}{\contentsline {subsection}{\numberline {5.6.1}Results}{17}{subsection.43}}
\newlabel{origim}{{5.1a}{18}{Subfigure 5 5.1a}{subfigure.45}{}}
\newlabel{sub@origim}{{(a)}{a}{Subfigure 5 5.1a\relax }{subfigure.45}{}}
\newlabel{Otsuim}{{5.1b}{18}{Subfigure 5 5.1b}{subfigure.46}{}}
\newlabel{sub@Otsuim}{{(b)}{b}{Subfigure 5 5.1b\relax }{subfigure.46}{}}
\newlabel{meanim}{{5.1c}{18}{Subfigure 5 5.1c}{subfigure.47}{}}
\newlabel{sub@meanim}{{(c)}{c}{Subfigure 5 5.1c\relax }{subfigure.47}{}}
\newlabel{quantim}{{5.1d}{18}{Subfigure 5 5.1d}{subfigure.48}{}}
\newlabel{sub@quantim}{{(d)}{d}{Subfigure 5 5.1d\relax }{subfigure.48}{}}
\@writefile{lof}{\contentsline {figure}{\numberline {5.1}{\ignorespaces Segmentation methods \ref  {otsu} - \ref  {quantsec}}}{18}{figure.caption.44}}
\newlabel{seg1}{{5.1}{18}{Segmentation methods \ref {otsu} - \ref {quantsec}}{figure.caption.44}{}}
\@writefile{lof}{\contentsline {subfigure}{\numberline{(a)}{\ignorespaces {Original Image}}}{18}{subfigure.1.1}}
\@writefile{lof}{\contentsline {subfigure}{\numberline{(b)}{\ignorespaces {Otsu}}}{18}{subfigure.1.2}}
\@writefile{lof}{\contentsline {subfigure}{\numberline{(c)}{\ignorespaces {Mean Threshold}}}{18}{subfigure.1.3}}
\@writefile{lof}{\contentsline {subfigure}{\numberline{(d)}{\ignorespaces { Quantile 0.8 Threshold}}}{18}{subfigure.1.4}}
\newlabel{combim}{{5.2a}{19}{Subfigure 5 5.2a}{subfigure.50}{}}
\newlabel{sub@combim}{{(a)}{a}{Subfigure 5 5.2a\relax }{subfigure.50}{}}
\newlabel{mserim}{{5.2b}{19}{Subfigure 5 5.2b}{subfigure.51}{}}
\newlabel{sub@mserim}{{(b)}{b}{Subfigure 5 5.2b\relax }{subfigure.51}{}}
\newlabel{fixim}{{5.2c}{19}{Subfigure 5 5.2c}{subfigure.52}{}}
\newlabel{sub@fixim}{{(c)}{c}{Subfigure 5 5.2c\relax }{subfigure.52}{}}
\newlabel{seg2}{{\caption@xref {seg2}{ on input line 197}}{19}{Results}{subfigure.52}{}}
\@writefile{lof}{\contentsline {figure}{\numberline {5.2}{\ignorespaces Segmentation methods \ref  {combsec} - \ref  {globalsec}}}{19}{figure.caption.49}}
\@writefile{lof}{\contentsline {subfigure}{\numberline{(a)}{\ignorespaces {Mean and Quantile Combined Threshold}}}{19}{subfigure.2.1}}
\@writefile{lof}{\contentsline {subfigure}{\numberline{(b)}{\ignorespaces {Maximal Stable Region}}}{19}{subfigure.2.2}}
\@writefile{lof}{\contentsline {subfigure}{\numberline{(c)}{\ignorespaces {Fixed Global Threshold}}}{19}{subfigure.2.3}}
\@writefile{toc}{\contentsline {section}{\numberline {5.7}Final Evaluation}{20}{section.53}}
\@setckpt{Chapters/Chapter2}{
\setcounter{page}{21}
\setcounter{equation}{0}
\setcounter{enumi}{4}
\setcounter{enumii}{0}
\setcounter{enumiii}{0}
\setcounter{enumiv}{0}
\setcounter{footnote}{0}
\setcounter{mpfootnote}{0}
\setcounter{part}{0}
\setcounter{chapter}{5}
\setcounter{section}{7}
\setcounter{subsection}{0}
\setcounter{subsubsection}{0}
\setcounter{paragraph}{0}
\setcounter{subparagraph}{0}
\setcounter{figure}{2}
\setcounter{table}{0}
\setcounter{LT@tables}{0}
\setcounter{LT@chunks}{0}
\setcounter{ContinuedFloat}{0}
\setcounter{parentequation}{0}
\setcounter{Item}{10}
\setcounter{Hfootnote}{0}
\setcounter{bookmark@seq@number}{22}
\setcounter{tabx@nest}{0}
\setcounter{listtotal}{0}
\setcounter{listcount}{0}
\setcounter{liststart}{0}
\setcounter{liststop}{0}
\setcounter{citecount}{0}
\setcounter{citetotal}{0}
\setcounter{multicitecount}{0}
\setcounter{multicitetotal}{0}
\setcounter{instcount}{76}
\setcounter{maxnames}{3}
\setcounter{minnames}{1}
\setcounter{maxitems}{3}
\setcounter{minitems}{1}
\setcounter{citecounter}{0}
\setcounter{savedcitecounter}{0}
\setcounter{uniquelist}{0}
\setcounter{uniquename}{0}
\setcounter{refsection}{0}
\setcounter{refsegment}{0}
\setcounter{maxextratitle}{0}
\setcounter{maxextratitleyear}{0}
\setcounter{maxextradate}{0}
\setcounter{maxextraalpha}{0}
\setcounter{abbrvpenalty}{50}
\setcounter{highnamepenalty}{50}
\setcounter{lownamepenalty}{25}
\setcounter{maxparens}{3}
\setcounter{parenlevel}{0}
\setcounter{mincomprange}{10}
\setcounter{maxcomprange}{100000}
\setcounter{mincompwidth}{1}
\setcounter{afterword}{0}
\setcounter{savedafterword}{0}
\setcounter{annotator}{0}
\setcounter{savedannotator}{0}
\setcounter{author}{0}
\setcounter{savedauthor}{0}
\setcounter{bookauthor}{0}
\setcounter{savedbookauthor}{0}
\setcounter{commentator}{0}
\setcounter{savedcommentator}{0}
\setcounter{editor}{0}
\setcounter{savededitor}{0}
\setcounter{editora}{0}
\setcounter{savededitora}{0}
\setcounter{editorb}{0}
\setcounter{savededitorb}{0}
\setcounter{editorc}{0}
\setcounter{savededitorc}{0}
\setcounter{foreword}{0}
\setcounter{savedforeword}{0}
\setcounter{holder}{0}
\setcounter{savedholder}{0}
\setcounter{introduction}{0}
\setcounter{savedintroduction}{0}
\setcounter{namea}{0}
\setcounter{savednamea}{0}
\setcounter{nameb}{0}
\setcounter{savednameb}{0}
\setcounter{namec}{0}
\setcounter{savednamec}{0}
\setcounter{translator}{0}
\setcounter{savedtranslator}{0}
\setcounter{shortauthor}{0}
\setcounter{savedshortauthor}{0}
\setcounter{shorteditor}{0}
\setcounter{savedshorteditor}{0}
\setcounter{labelname}{0}
\setcounter{savedlabelname}{0}
\setcounter{institution}{0}
\setcounter{savedinstitution}{0}
\setcounter{lista}{0}
\setcounter{savedlista}{0}
\setcounter{listb}{0}
\setcounter{savedlistb}{0}
\setcounter{listc}{0}
\setcounter{savedlistc}{0}
\setcounter{listd}{0}
\setcounter{savedlistd}{0}
\setcounter{liste}{0}
\setcounter{savedliste}{0}
\setcounter{listf}{0}
\setcounter{savedlistf}{0}
\setcounter{location}{0}
\setcounter{savedlocation}{0}
\setcounter{organization}{0}
\setcounter{savedorganization}{0}
\setcounter{origlocation}{0}
\setcounter{savedoriglocation}{0}
\setcounter{origpublisher}{0}
\setcounter{savedorigpublisher}{0}
\setcounter{publisher}{0}
\setcounter{savedpublisher}{0}
\setcounter{language}{0}
\setcounter{savedlanguage}{0}
\setcounter{origlanguage}{0}
\setcounter{savedoriglanguage}{0}
\setcounter{pageref}{0}
\setcounter{savedpageref}{0}
\setcounter{textcitecount}{0}
\setcounter{textcitetotal}{0}
\setcounter{textcitemaxnames}{0}
\setcounter{biburlnumpenalty}{0}
\setcounter{biburlucpenalty}{0}
\setcounter{biburllcpenalty}{0}
\setcounter{smartand}{1}
\setcounter{bbx:relatedcount}{0}
\setcounter{bbx:relatedtotal}{0}
\setcounter{KVtest}{0}
\setcounter{subfigure}{0}
\setcounter{subfigure@save}{3}
\setcounter{lofdepth}{1}
\setcounter{subtable}{0}
\setcounter{subtable@save}{0}
\setcounter{lotdepth}{1}
\setcounter{AM@survey}{0}
\setcounter{float@type}{4}
\setcounter{pp@next@reset}{0}
\setcounter{section@level}{1}
}
