\relax 
\providecommand\hyper@newdestlabel[2]{}
\@writefile{toc}{\contentsline {section}{\numberline {6.3}Quantitative Evaluation of Neural Network Performance}{26}{section.66}}
\@writefile{toc}{\contentsline {subsection}{\numberline {6.3.1}Comparison of the Reference Image versus the NN Classification}{26}{subsection.67}}
\newlabel{formalcomsec}{{6.3.1}{26}{Comparison of the Reference Image versus the NN Classification}{subsection.67}{}}
\@writefile{toc}{\contentsline {subsection}{\numberline {6.3.2}Determination of the Binarization Threshold}{28}{subsection.75}}
\newlabel{thresholdsec}{{6.3.2}{28}{Determination of the Binarization Threshold}{subsection.75}{}}
\newlabel{optt}{{6.2a}{29}{Subfigure 6 6.2a}{subfigure.78}{}}
\newlabel{sub@optt}{{(a)}{a}{Subfigure 6 6.2a\relax }{subfigure.78}{}}
\newlabel{t05}{{6.2b}{29}{Subfigure 6 6.2b}{subfigure.79}{}}
\newlabel{sub@t05}{{(b)}{b}{Subfigure 6 6.2b\relax }{subfigure.79}{}}
\@writefile{lof}{\contentsline {figure}{\numberline {6.2}{\ignorespaces Example of cells unaligned due to the threshold}}{29}{figure.caption.77}}
\newlabel{comthresh}{{6.2}{29}{Example of cells unaligned due to the threshold}{figure.caption.77}{}}
\@writefile{lof}{\contentsline {subfigure}{\numberline{(a)}{\ignorespaces {the optimal threshold value}}}{29}{subfigure.2.1}}
\@writefile{lof}{\contentsline {subfigure}{\numberline{(b)}{\ignorespaces {the threshold value set to $6.5$}}}{29}{subfigure.2.2}}
\newlabel{ta}{{6.3a}{30}{Subfigure 6 6.3a}{subfigure.81}{}}
\newlabel{sub@ta}{{(a)}{a}{Subfigure 6 6.3a\relax }{subfigure.81}{}}
\newlabel{tb}{{6.3b}{30}{Subfigure 6 6.3b}{subfigure.82}{}}
\newlabel{sub@tb}{{(b)}{b}{Subfigure 6 6.3b\relax }{subfigure.82}{}}
\newlabel{tc}{{6.3c}{30}{Subfigure 6 6.3c}{subfigure.83}{}}
\newlabel{sub@tc}{{(c)}{c}{Subfigure 6 6.3c\relax }{subfigure.83}{}}
\newlabel{td}{{6.3d}{30}{Subfigure 6 6.3d}{subfigure.84}{}}
\newlabel{sub@td}{{(d)}{d}{Subfigure 6 6.3d\relax }{subfigure.84}{}}
\@writefile{lof}{\contentsline {figure}{\numberline {6.3}{\ignorespaces Impact of the underestimating and overestimating of the threshold compared to the optimal one.}}{30}{figure.caption.80}}
\newlabel{threshchange}{{6.3}{30}{Impact of the underestimating and overestimating of the threshold compared to the optimal one}{figure.caption.80}{}}
\@writefile{lof}{\contentsline {subfigure}{\numberline{(a)}{\ignorespaces {threshold = $0.65$}}}{30}{subfigure.3.1}}
\@writefile{lof}{\contentsline {subfigure}{\numberline{(b)}{\ignorespaces {threshold = $1.6$}}}{30}{subfigure.3.2}}
\@writefile{lof}{\contentsline {subfigure}{\numberline{(c)}{\ignorespaces {threshold = $6.5$}}}{30}{subfigure.3.3}}
\@writefile{lof}{\contentsline {subfigure}{\numberline{(d)}{\ignorespaces {input contrast microscopy}}}{30}{subfigure.3.4}}
\newlabel{tROCa}{{6.4a}{31}{Subfigure 6 6.4a}{subfigure.86}{}}
\newlabel{sub@tROCa}{{(a)}{a}{Subfigure 6 6.4a\relax }{subfigure.86}{}}
\@writefile{lof}{\contentsline {figure}{\numberline {6.4}{\ignorespaces Impact of the threshold change on the Dice loss}}{31}{figure.caption.85}}
\newlabel{tROC}{{6.4}{31}{Impact of the threshold change on the Dice loss}{figure.caption.85}{}}
\@writefile{lof}{\contentsline {subfigure}{\numberline{(a)}{\ignorespaces {}}}{31}{subfigure.4.1}}
\@writefile{lot}{\contentsline {table}{\numberline {6.1}{\ignorespaces Impact of the threshold on the neural network based on distance-transform loss\relax }}{31}{table.caption.87}}
\newlabel{toptt}{{6.1}{31}{Impact of the threshold on the neural network based on distance-transform loss\relax }{table.caption.87}{}}
\@writefile{toc}{\contentsline {subsection}{\numberline {6.3.3}Experimental Results Comparison of Different Loss Settings}{31}{subsection.88}}
\newlabel{kvantsec}{{6.3.3}{31}{Experimental Results Comparison of Different Loss Settings}{subsection.88}{}}
\@writefile{lot}{\contentsline {table}{\numberline {6.2}{\ignorespaces Comparison of results using the pixelwise and distance-transform loss based Unets\relax }}{32}{table.caption.89}}
\newlabel{diftab}{{6.2}{32}{Comparison of results using the pixelwise and distance-transform loss based Unets\relax }{table.caption.89}{}}
\newlabel{c}{{6.5a}{33}{Subfigure 6 6.5a}{subfigure.91}{}}
\newlabel{sub@c}{{(a)}{a}{Subfigure 6 6.5a\relax }{subfigure.91}{}}
\newlabel{d}{{6.5b}{33}{Subfigure 6 6.5b}{subfigure.92}{}}
\newlabel{sub@d}{{(b)}{b}{Subfigure 6 6.5b\relax }{subfigure.92}{}}
\newlabel{a}{{6.5c}{33}{Subfigure 6 6.5c}{subfigure.93}{}}
\newlabel{sub@a}{{(c)}{c}{Subfigure 6 6.5c\relax }{subfigure.93}{}}
\newlabel{b}{{6.5d}{33}{Subfigure 6 6.5d}{subfigure.94}{}}
\newlabel{sub@b}{{(d)}{d}{Subfigure 6 6.5d\relax }{subfigure.94}{}}
\@writefile{lof}{\contentsline {figure}{\numberline {6.5}{\ignorespaces Comparison of centers of the nuclei among the neural network output and reference.}}{33}{figure.caption.90}}
\newlabel{porov}{{6.5}{33}{Comparison of centers of the nuclei among the neural network output and reference}{figure.caption.90}{}}
\@writefile{lof}{\contentsline {subfigure}{\numberline{(a)}{\ignorespaces {contrast microscopy image}}}{33}{subfigure.5.1}}
\@writefile{lof}{\contentsline {subfigure}{\numberline{(b)}{\ignorespaces {fluorescence microscopy segmentation}}}{33}{subfigure.5.2}}
\@writefile{lof}{\contentsline {subfigure}{\numberline{(c)}{\ignorespaces {NN output (distance-transform loss)}}}{33}{subfigure.5.3}}
\@writefile{lof}{\contentsline {subfigure}{\numberline{(d)}{\ignorespaces {NN output (pixel-wise loss)}}}{33}{subfigure.5.4}}
\newlabel{fpc}{{6.6a}{34}{Subfigure 6 6.6a}{subfigure.96}{}}
\newlabel{sub@fpc}{{(a)}{a}{Subfigure 6 6.6a\relax }{subfigure.96}{}}
\newlabel{fpd}{{6.6b}{34}{Subfigure 6 6.6b}{subfigure.97}{}}
\newlabel{sub@fpd}{{(b)}{b}{Subfigure 6 6.6b\relax }{subfigure.97}{}}
\newlabel{fpa}{{6.6c}{34}{Subfigure 6 6.6c}{subfigure.98}{}}
\newlabel{sub@fpa}{{(c)}{c}{Subfigure 6 6.6c\relax }{subfigure.98}{}}
\newlabel{fpb}{{6.6d}{34}{Subfigure 6 6.6d}{subfigure.99}{}}
\newlabel{sub@fpb}{{(d)}{d}{Subfigure 6 6.6d\relax }{subfigure.99}{}}
\@writefile{lof}{\contentsline {figure}{\numberline {6.6}{\ignorespaces False positive detection}}{34}{figure.caption.95}}
\newlabel{FPim}{{6.6}{34}{False positive detection}{figure.caption.95}{}}
\@writefile{lof}{\contentsline {subfigure}{\numberline{(a)}{\ignorespaces {input contrast microscopy image}}}{34}{subfigure.6.1}}
\@writefile{lof}{\contentsline {subfigure}{\numberline{(b)}{\ignorespaces {fluorescence microscopy segmentation}}}{34}{subfigure.6.2}}
\@writefile{lof}{\contentsline {subfigure}{\numberline{(c)}{\ignorespaces {NN output (distance-transform loss)}}}{34}{subfigure.6.3}}
\@writefile{lof}{\contentsline {subfigure}{\numberline{(d)}{\ignorespaces {segmenation obtained from fluorescence}}}{34}{subfigure.6.4}}
\@writefile{toc}{\contentsline {subsection}{\numberline {6.3.4}False Positives Detection Problem}{35}{subsection.105}}
\newlabel{FPcolsec}{{6.3.4}{35}{False Positives Detection Problem}{subsection.105}{}}
\newlabel{artA}{{6.7a}{36}{Subfigure 6 6.7a}{subfigure.101}{}}
\newlabel{sub@artA}{{(a)}{a}{Subfigure 6 6.7a\relax }{subfigure.101}{}}
\newlabel{artB}{{6.7b}{36}{Subfigure 6 6.7b}{subfigure.102}{}}
\newlabel{sub@artB}{{(b)}{b}{Subfigure 6 6.7b\relax }{subfigure.102}{}}
\newlabel{artC}{{6.7c}{36}{Subfigure 6 6.7c}{subfigure.103}{}}
\newlabel{sub@artC}{{(c)}{c}{Subfigure 6 6.7c\relax }{subfigure.103}{}}
\newlabel{artD}{{6.7d}{36}{Subfigure 6 6.7d}{subfigure.104}{}}
\newlabel{sub@artD}{{(d)}{d}{Subfigure 6 6.7d\relax }{subfigure.104}{}}
\@writefile{lof}{\contentsline {figure}{\numberline {6.7}{\ignorespaces U-Net output when the input contains artifacts}}{36}{figure.caption.100}}
\newlabel{artefim}{{6.7}{36}{U-Net output when the input contains artifacts}{figure.caption.100}{}}
\@writefile{lof}{\contentsline {subfigure}{\numberline{(a)}{\ignorespaces {}}}{36}{subfigure.7.1}}
\@writefile{lof}{\contentsline {subfigure}{\numberline{(b)}{\ignorespaces {}}}{36}{subfigure.7.2}}
\@writefile{lof}{\contentsline {subfigure}{\numberline{(c)}{\ignorespaces {}}}{36}{subfigure.7.3}}
\@writefile{lof}{\contentsline {subfigure}{\numberline{(d)}{\ignorespaces {}}}{36}{subfigure.7.4}}
\@writefile{lof}{\contentsline {figure}{\numberline {6.8}{\ignorespaces False positives detection}}{37}{figure.caption.106}}
\newlabel{FP6im}{{6.8}{37}{False positives detection}{figure.caption.106}{}}
\@writefile{lof}{\contentsline {figure}{\numberline {6.9}{\ignorespaces The number of the images with the given range of the false-positives per image\relax }}{37}{figure.caption.107}}
\newlabel{FPhist}{{6.9}{37}{The number of the images with the given range of the false-positives per image\relax }{figure.caption.107}{}}
\@writefile{toc}{\contentsline {subsubsection}{\numberline {6.3.4.1}False Positives Detection Related to the Touching Cells}{38}{subsubsection.108}}
\newlabel{touchnucleisec}{{6.3.4.1}{38}{False Positives Detection Related to the Touching Cells}{subsubsection.108}{}}
\@writefile{toc}{\contentsline {subsection}{\numberline {6.3.5}Dataset Impact on the NN Performance}{38}{subsection.112}}
\newlabel{dataimpactsec}{{6.3.5}{38}{Dataset Impact on the NN Performance}{subsection.112}{}}
\newlabel{manyfpa}{{6.10a}{39}{Subfigure 6 6.10a}{subfigure.110}{}}
\newlabel{sub@manyfpa}{{(a)}{a}{Subfigure 6 6.10a\relax }{subfigure.110}{}}
\@writefile{lof}{\contentsline {figure}{\numberline {6.10}{\ignorespaces Example of many touching nuclei}}{39}{figure.caption.109}}
\newlabel{manyfp}{{6.10}{39}{Example of many touching nuclei}{figure.caption.109}{}}
\@writefile{lof}{\contentsline {subfigure}{\numberline{(a)}{\ignorespaces {the distance-transform neural network output }}}{39}{subfigure.10.1}}
\@writefile{lot}{\contentsline {table}{\numberline {6.3}{\ignorespaces Dataset comparison}}{39}{table.caption.113}}
\newlabel{tlarge}{{6.3}{39}{Dataset comparison}{table.caption.113}{}}
\@writefile{lof}{\contentsline {figure}{\numberline {6.11}{\ignorespaces Many touching cells compared}}{40}{figure.caption.111}}
\newlabel{FPmany}{{6.11}{40}{Many touching cells compared}{figure.caption.111}{}}
\@writefile{toc}{\contentsline {subsection}{\numberline {6.3.6}Further Analysis of the '72h' dataset}{40}{subsection.114}}
\@writefile{toc}{\contentsline {subsection}{\numberline {6.3.7}Possible Improvement of the Classification}{41}{subsection.120}}
\newlabel{posimpsec}{{6.3.7}{41}{Possible Improvement of the Classification}{subsection.120}{}}
\newlabel{hist24}{{6.12a}{42}{Subfigure 6 6.12a}{subfigure.116}{}}
\newlabel{sub@hist24}{{(a)}{a}{Subfigure 6 6.12a\relax }{subfigure.116}{}}
\newlabel{hist72}{{6.12b}{42}{Subfigure 6 6.12b}{subfigure.117}{}}
\newlabel{sub@hist72}{{(b)}{b}{Subfigure 6 6.12b\relax }{subfigure.117}{}}
\newlabel{histbefore}{{6.12c}{42}{Subfigure 6 6.12c}{subfigure.118}{}}
\newlabel{sub@histbefore}{{(c)}{c}{Subfigure 6 6.12c\relax }{subfigure.118}{}}
\newlabel{histonly}{{6.12d}{42}{Subfigure 6 6.12d}{subfigure.119}{}}
\newlabel{sub@histonly}{{(d)}{d}{Subfigure 6 6.12d\relax }{subfigure.119}{}}
\@writefile{lof}{\contentsline {figure}{\numberline {6.12}{\ignorespaces The histograms of false-positive detections on each dataset}}{42}{figure.caption.115}}
\newlabel{histograms}{{6.12}{42}{The histograms of false-positive detections on each dataset}{figure.caption.115}{}}
\@writefile{lof}{\contentsline {subfigure}{\numberline{(a)}{\ignorespaces {The dataset '24h'}}}{42}{subfigure.12.1}}
\@writefile{lof}{\contentsline {subfigure}{\numberline{(b)}{\ignorespaces {The dataset '72h'}}}{42}{subfigure.12.2}}
\@writefile{lof}{\contentsline {subfigure}{\numberline{(c)}{\ignorespaces {The dataset 'before'}}}{42}{subfigure.12.3}}
\@writefile{lof}{\contentsline {subfigure}{\numberline{(d)}{\ignorespaces {The dataset 'only'}}}{42}{subfigure.12.4}}
\@writefile{lof}{\contentsline {figure}{\numberline {6.13}{\ignorespaces The relation between the $\%$ of ommitted images and sensitivity, or precision}}{43}{figure.caption.121}}
\newlabel{qcombined}{{6.13}{43}{The relation between the $\%$ of ommitted images and sensitivity, or precision}{figure.caption.121}{}}
\newlabel{qA}{{6.14a}{43}{Subfigure 6 6.14a}{subfigure.123}{}}
\newlabel{sub@qA}{{(a)}{a}{Subfigure 6 6.14a\relax }{subfigure.123}{}}
\newlabel{qB}{{6.14b}{43}{Subfigure 6 6.14b}{subfigure.124}{}}
\newlabel{sub@qB}{{(b)}{b}{Subfigure 6 6.14b\relax }{subfigure.124}{}}
\@writefile{lof}{\contentsline {figure}{\numberline {6.14}{\ignorespaces The distribution of the number of the worse classified images over the datasets.}}{43}{figure.caption.122}}
\newlabel{quantile}{{6.14}{43}{The distribution of the number of the worse classified images over the datasets}{figure.caption.122}{}}
\@writefile{lof}{\contentsline {subfigure}{\numberline{(a)}{\ignorespaces {}}}{43}{subfigure.14.1}}
\@writefile{lof}{\contentsline {subfigure}{\numberline{(b)}{\ignorespaces {}}}{43}{subfigure.14.2}}
\newlabel{filtA}{{6.15a}{44}{Subfigure 6 6.15a}{subfigure.126}{}}
\newlabel{sub@filtA}{{(a)}{a}{Subfigure 6 6.15a\relax }{subfigure.126}{}}
\newlabel{filtB}{{6.15b}{44}{Subfigure 6 6.15b}{subfigure.127}{}}
\newlabel{sub@filtB}{{(b)}{b}{Subfigure 6 6.15b\relax }{subfigure.127}{}}
\@writefile{lof}{\contentsline {figure}{\numberline {6.15}{\ignorespaces Example of images in $20\%$ quantile of training images descendingly sorted by the false-negatives occurences}}{44}{figure.caption.125}}
\newlabel{filt}{{6.15}{44}{Example of images in $20\%$ quantile of training images descendingly sorted by the false-negatives occurences}{figure.caption.125}{}}
\@writefile{lof}{\contentsline {subfigure}{\numberline{(a)}{\ignorespaces {}}}{44}{subfigure.15.1}}
\@writefile{lof}{\contentsline {subfigure}{\numberline{(b)}{\ignorespaces {}}}{44}{subfigure.15.2}}
\@writefile{toc}{\contentsline {subsubsection}{\numberline {6.3.7.1}Training-set Pruning}{45}{subsubsection.128}}
\newlabel{prepomit}{{6.3.7.1}{45}{Training-set Pruning}{subsubsection.128}{}}
\@writefile{lot}{\contentsline {table}{\numberline {6.4}{\ignorespaces Dataset comparison with the training set preprocessing\relax }}{45}{table.caption.129}}
\newlabel{telim}{{6.4}{45}{Dataset comparison with the training set preprocessing\relax }{table.caption.129}{}}
\@setckpt{Chapters/Chapter3_2}{
\setcounter{page}{46}
\setcounter{equation}{8}
\setcounter{enumi}{2}
\setcounter{enumii}{0}
\setcounter{enumiii}{0}
\setcounter{enumiv}{0}
\setcounter{footnote}{1}
\setcounter{mpfootnote}{0}
\setcounter{part}{0}
\setcounter{chapter}{6}
\setcounter{section}{3}
\setcounter{subsection}{7}
\setcounter{subsubsection}{1}
\setcounter{paragraph}{0}
\setcounter{subparagraph}{0}
\setcounter{figure}{15}
\setcounter{table}{4}
\setcounter{LT@tables}{0}
\setcounter{LT@chunks}{0}
\setcounter{ContinuedFloat}{0}
\setcounter{parentequation}{0}
\setcounter{Item}{14}
\setcounter{Hfootnote}{1}
\setcounter{bookmark@seq@number}{38}
\setcounter{tabx@nest}{0}
\setcounter{listtotal}{0}
\setcounter{listcount}{0}
\setcounter{liststart}{0}
\setcounter{liststop}{0}
\setcounter{citecount}{0}
\setcounter{citetotal}{0}
\setcounter{multicitecount}{0}
\setcounter{multicitetotal}{0}
\setcounter{instcount}{95}
\setcounter{maxnames}{3}
\setcounter{minnames}{1}
\setcounter{maxitems}{3}
\setcounter{minitems}{1}
\setcounter{citecounter}{0}
\setcounter{savedcitecounter}{0}
\setcounter{uniquelist}{0}
\setcounter{uniquename}{0}
\setcounter{refsection}{0}
\setcounter{refsegment}{0}
\setcounter{maxextratitle}{0}
\setcounter{maxextratitleyear}{0}
\setcounter{maxextradate}{0}
\setcounter{maxextraalpha}{0}
\setcounter{abbrvpenalty}{50}
\setcounter{highnamepenalty}{50}
\setcounter{lownamepenalty}{25}
\setcounter{maxparens}{3}
\setcounter{parenlevel}{0}
\setcounter{mincomprange}{10}
\setcounter{maxcomprange}{100000}
\setcounter{mincompwidth}{1}
\setcounter{afterword}{0}
\setcounter{savedafterword}{0}
\setcounter{annotator}{0}
\setcounter{savedannotator}{0}
\setcounter{author}{0}
\setcounter{savedauthor}{0}
\setcounter{bookauthor}{0}
\setcounter{savedbookauthor}{0}
\setcounter{commentator}{0}
\setcounter{savedcommentator}{0}
\setcounter{editor}{0}
\setcounter{savededitor}{0}
\setcounter{editora}{0}
\setcounter{savededitora}{0}
\setcounter{editorb}{0}
\setcounter{savededitorb}{0}
\setcounter{editorc}{0}
\setcounter{savededitorc}{0}
\setcounter{foreword}{0}
\setcounter{savedforeword}{0}
\setcounter{holder}{0}
\setcounter{savedholder}{0}
\setcounter{introduction}{0}
\setcounter{savedintroduction}{0}
\setcounter{namea}{0}
\setcounter{savednamea}{0}
\setcounter{nameb}{0}
\setcounter{savednameb}{0}
\setcounter{namec}{0}
\setcounter{savednamec}{0}
\setcounter{translator}{0}
\setcounter{savedtranslator}{0}
\setcounter{shortauthor}{0}
\setcounter{savedshortauthor}{0}
\setcounter{shorteditor}{0}
\setcounter{savedshorteditor}{0}
\setcounter{labelname}{0}
\setcounter{savedlabelname}{0}
\setcounter{institution}{0}
\setcounter{savedinstitution}{0}
\setcounter{lista}{0}
\setcounter{savedlista}{0}
\setcounter{listb}{0}
\setcounter{savedlistb}{0}
\setcounter{listc}{0}
\setcounter{savedlistc}{0}
\setcounter{listd}{0}
\setcounter{savedlistd}{0}
\setcounter{liste}{0}
\setcounter{savedliste}{0}
\setcounter{listf}{0}
\setcounter{savedlistf}{0}
\setcounter{location}{0}
\setcounter{savedlocation}{0}
\setcounter{organization}{0}
\setcounter{savedorganization}{0}
\setcounter{origlocation}{0}
\setcounter{savedoriglocation}{0}
\setcounter{origpublisher}{0}
\setcounter{savedorigpublisher}{0}
\setcounter{publisher}{0}
\setcounter{savedpublisher}{0}
\setcounter{language}{0}
\setcounter{savedlanguage}{0}
\setcounter{origlanguage}{0}
\setcounter{savedoriglanguage}{0}
\setcounter{pageref}{0}
\setcounter{savedpageref}{0}
\setcounter{textcitecount}{0}
\setcounter{textcitetotal}{0}
\setcounter{textcitemaxnames}{0}
\setcounter{biburlnumpenalty}{0}
\setcounter{biburlucpenalty}{0}
\setcounter{biburllcpenalty}{0}
\setcounter{smartand}{1}
\setcounter{bbx:relatedcount}{0}
\setcounter{bbx:relatedtotal}{0}
\setcounter{KVtest}{0}
\setcounter{subfigure}{0}
\setcounter{subfigure@save}{2}
\setcounter{lofdepth}{1}
\setcounter{subtable}{0}
\setcounter{subtable@save}{0}
\setcounter{lotdepth}{1}
\setcounter{AM@survey}{0}
\setcounter{float@type}{4}
\setcounter{pp@next@reset}{0}
\setcounter{section@level}{3}
}
