\relax 
\providecommand\hyper@newdestlabel[2]{}
\@writefile{toc}{\contentsline {section}{\numberline {4.3}Quantitative Evaluation of Neural Network Performance}{20}{section.58}}
\@writefile{toc}{\contentsline {subsection}{\numberline {4.3.1}Comparison of the Reference Image versus the NN Classification}{20}{subsection.59}}
\newlabel{formalcomsec}{{4.3.1}{20}{Comparison of the Reference Image versus the NN Classification}{subsection.59}{}}
\@writefile{lof}{\contentsline {figure}{\numberline {4.2}{\ignorespaces Example of the cells, unaligned due to the threshold setting\relax }}{21}{figure.caption.63}}
\newlabel{unalth}{{4.2}{21}{Example of the cells, unaligned due to the threshold setting\relax }{figure.caption.63}{}}
\@writefile{lof}{\contentsline {subfigure}{\numberline{(a)}{\ignorespaces {NN output combined with the reference output: green represents the overlapping regions, yellow false-positive regions and blue false-negative regions. The matched centers are marked green, FP centers are red, and FN centers are blue.}}}{21}{subfigure.2.1}}
\@writefile{toc}{\contentsline {subsection}{\numberline {4.3.2}Experimental Results of the Quantitative Evaluation}{23}{subsection.70}}
\newlabel{kvantsec}{{4.3.2}{23}{Experimental Results of the Quantitative Evaluation}{subsection.70}{}}
\@writefile{lot}{\contentsline {table}{\numberline {4.1}{\ignorespaces Comparison of results using the pixelwise and distance-transform loss based Unets\relax }}{23}{table.caption.71}}
\newlabel{diftab}{{4.1}{23}{Comparison of results using the pixelwise and distance-transform loss based Unets\relax }{table.caption.71}{}}
\newlabel{a}{{4.3a}{24}{Subfigure 4 4.3a}{subfigure.73}{}}
\newlabel{sub@a}{{(a)}{a}{Subfigure 4 4.3a\relax }{subfigure.73}{}}
\newlabel{b}{{4.3b}{24}{Subfigure 4 4.3b}{subfigure.74}{}}
\newlabel{sub@b}{{(b)}{b}{Subfigure 4 4.3b\relax }{subfigure.74}{}}
\@writefile{lof}{\contentsline {figure}{\numberline {4.3}{\ignorespaces Comparison of centers of the nuclei among the neural network output and reference.\relax }}{24}{figure.caption.72}}
\newlabel{porov}{{4.3}{24}{Comparison of centers of the nuclei among the neural network output and reference.\relax }{figure.caption.72}{}}
\@writefile{lof}{\contentsline {subfigure}{\numberline{(a)}{\ignorespaces {NN output (distance-transform loss)}}}{24}{subfigure.3.1}}
\@writefile{lof}{\contentsline {subfigure}{\numberline{(b)}{\ignorespaces {NN output (pixel-wise loss)}}}{24}{subfigure.3.2}}
\@writefile{lof}{\contentsline {figure}{\numberline {4.4}{\ignorespaces False positive detection\relax }}{25}{figure.caption.75}}
\newlabel{FPim}{{4.4}{25}{False positive detection\relax }{figure.caption.75}{}}
\@writefile{lof}{\contentsline {subfigure}{\numberline{(a)}{\ignorespaces {NN output (distance-transfrom loss)}}}{25}{subfigure.4.1}}
\@writefile{toc}{\contentsline {subsection}{\numberline {4.3.3}Determination of the Binary Threshold}{25}{subsection.77}}
\newlabel{thresholdsec}{{4.3.3}{25}{Determination of the Binary Threshold}{subsection.77}{}}
\@writefile{lot}{\contentsline {table}{\numberline {4.2}{\ignorespaces Impact of the threshold on the neural network based on distance-transform loss\relax }}{26}{table.caption.88}}
\newlabel{toptt}{{4.2}{26}{Impact of the threshold on the neural network based on distance-transform loss\relax }{table.caption.88}{}}
\newlabel{optt}{{4.5a}{27}{Subfigure 4 4.5a}{subfigure.80}{}}
\newlabel{sub@optt}{{(a)}{a}{Subfigure 4 4.5a\relax }{subfigure.80}{}}
\newlabel{t05}{{4.5b}{27}{Subfigure 4 4.5b}{subfigure.81}{}}
\newlabel{sub@t05}{{(b)}{b}{Subfigure 4 4.5b\relax }{subfigure.81}{}}
\@writefile{lof}{\contentsline {figure}{\numberline {4.5}{\ignorespaces Example of cells unaligned due to the threshold\relax }}{27}{figure.caption.79}}
\newlabel{comthresh}{{4.5}{27}{Example of cells unaligned due to the threshold\relax }{figure.caption.79}{}}
\@writefile{lof}{\contentsline {subfigure}{\numberline{(a)}{\ignorespaces {the optimal threshold value}}}{27}{subfigure.5.1}}
\@writefile{lof}{\contentsline {subfigure}{\numberline{(b)}{\ignorespaces {the threshold value set to $0.5$}}}{27}{subfigure.5.2}}
\newlabel{ta}{{4.6a}{28}{Subfigure 4 4.6a}{subfigure.83}{}}
\newlabel{sub@ta}{{(a)}{a}{Subfigure 4 4.6a\relax }{subfigure.83}{}}
\newlabel{tb}{{4.6b}{28}{Subfigure 4 4.6b}{subfigure.84}{}}
\newlabel{sub@tb}{{(b)}{b}{Subfigure 4 4.6b\relax }{subfigure.84}{}}
\newlabel{tc}{{4.6c}{28}{Subfigure 4 4.6c}{subfigure.85}{}}
\newlabel{sub@tc}{{(c)}{c}{Subfigure 4 4.6c\relax }{subfigure.85}{}}
\@writefile{lof}{\contentsline {figure}{\numberline {4.6}{\ignorespaces Impact of the underestimating and overestimating of the threshold compared to the optimal one.\relax }}{28}{figure.caption.82}}
\newlabel{threshchange}{{4.6}{28}{Impact of the underestimating and overestimating of the threshold compared to the optimal one.\relax }{figure.caption.82}{}}
\@writefile{lof}{\contentsline {subfigure}{\numberline{(a)}{\ignorespaces {threshold = $0.05$}}}{28}{subfigure.6.1}}
\@writefile{lof}{\contentsline {subfigure}{\numberline{(b)}{\ignorespaces {threshold = $0.122$}}}{28}{subfigure.6.2}}
\@writefile{lof}{\contentsline {subfigure}{\numberline{(c)}{\ignorespaces {threshold = $0.5$}}}{28}{subfigure.6.3}}
\newlabel{tROCa}{{4.7a}{29}{Subfigure 4 4.7a}{subfigure.87}{}}
\newlabel{sub@tROCa}{{(a)}{a}{Subfigure 4 4.7a\relax }{subfigure.87}{}}
\@writefile{lof}{\contentsline {figure}{\numberline {4.7}{\ignorespaces Impact of the threshold change on the Dice loss\relax }}{29}{figure.caption.86}}
\newlabel{tROC}{{4.7}{29}{Impact of the threshold change on the Dice loss\relax }{figure.caption.86}{}}
\@writefile{lof}{\contentsline {subfigure}{\numberline{(a)}{\ignorespaces {}}}{29}{subfigure.7.1}}
\@writefile{toc}{\contentsline {subsection}{\numberline {4.3.4}False Positives Detection Problem}{29}{subsection.89}}
\newlabel{FPcolsec}{{4.3.4}{29}{False Positives Detection Problem}{subsection.89}{}}
\@writefile{lof}{\contentsline {figure}{\numberline {4.8}{\ignorespaces False positives detection\relax }}{30}{figure.caption.90}}
\newlabel{FP6im}{{4.8}{30}{False positives detection\relax }{figure.caption.90}{}}
\@writefile{lof}{\contentsline {figure}{\numberline {4.9}{\ignorespaces The number of the images with the given range of the false-positives per image\relax }}{31}{figure.caption.91}}
\newlabel{FPhist}{{4.9}{31}{The number of the images with the given range of the false-positives per image\relax }{figure.caption.91}{}}
\@writefile{toc}{\contentsline {subsubsection}{False Positives Detection Related to the Touching Cells}{31}{section*.92}}
\newlabel{touchnucleisec}{{4.3.4}{31}{False Positives Detection Related to the Touching Cells}{section*.92}{}}
\newlabel{manyfpa}{{4.10a}{32}{Subfigure 4 4.10a}{subfigure.94}{}}
\newlabel{sub@manyfpa}{{(a)}{a}{Subfigure 4 4.10a\relax }{subfigure.94}{}}
\@writefile{lof}{\contentsline {figure}{\numberline {4.10}{\ignorespaces Example of many touching nuclei\relax }}{32}{figure.caption.93}}
\newlabel{manyfp}{{4.10}{32}{Example of many touching nuclei\relax }{figure.caption.93}{}}
\@writefile{lof}{\contentsline {subfigure}{\numberline{(a)}{\ignorespaces {the distance-transform neural network output }}}{32}{subfigure.10.1}}
\@writefile{toc}{\contentsline {subsection}{\numberline {4.3.5}Dataset Impact on the NN Performance}{32}{subsection.96}}
\newlabel{dataimpactsec}{{4.3.5}{32}{Dataset Impact on the NN Performance}{subsection.96}{}}
\@writefile{lof}{\contentsline {figure}{\numberline {4.11}{\ignorespaces Many touching cells compared\relax }}{33}{figure.caption.95}}
\newlabel{FPmany}{{4.11}{33}{Many touching cells compared\relax }{figure.caption.95}{}}
\@writefile{lot}{\contentsline {table}{\numberline {4.3}{\ignorespaces Dataset comparison\relax }}{33}{table.caption.97}}
\newlabel{tlarge}{{4.3}{33}{Dataset comparison\relax }{table.caption.97}{}}
\@writefile{toc}{\contentsline {subsection}{\numberline {4.3.6}Further Analysis of the '72h' dataset}{34}{subsection.98}}
\@writefile{toc}{\contentsline {subsection}{\numberline {4.3.7}Possible Improvement of the Classification}{34}{subsection.104}}
\newlabel{posimpsec}{{4.3.7}{34}{Possible Improvement of the Classification}{subsection.104}{}}
\newlabel{hist24}{{4.12a}{35}{Subfigure 4 4.12a}{subfigure.100}{}}
\newlabel{sub@hist24}{{(a)}{a}{Subfigure 4 4.12a\relax }{subfigure.100}{}}
\newlabel{hist72}{{4.12b}{35}{Subfigure 4 4.12b}{subfigure.101}{}}
\newlabel{sub@hist72}{{(b)}{b}{Subfigure 4 4.12b\relax }{subfigure.101}{}}
\newlabel{histbefore}{{4.12c}{35}{Subfigure 4 4.12c}{subfigure.102}{}}
\newlabel{sub@histbefore}{{(c)}{c}{Subfigure 4 4.12c\relax }{subfigure.102}{}}
\newlabel{histonly}{{4.12d}{35}{Subfigure 4 4.12d}{subfigure.103}{}}
\newlabel{sub@histonly}{{(d)}{d}{Subfigure 4 4.12d\relax }{subfigure.103}{}}
\@writefile{lof}{\contentsline {figure}{\numberline {4.12}{\ignorespaces The histograms of false-positive detections on each dataset\relax }}{35}{figure.caption.99}}
\newlabel{histograms}{{4.12}{35}{The histograms of false-positive detections on each dataset\relax }{figure.caption.99}{}}
\@writefile{lof}{\contentsline {subfigure}{\numberline{(a)}{\ignorespaces {The dataset '24h'}}}{35}{subfigure.12.1}}
\@writefile{lof}{\contentsline {subfigure}{\numberline{(b)}{\ignorespaces {The dataset '72h'}}}{35}{subfigure.12.2}}
\@writefile{lof}{\contentsline {subfigure}{\numberline{(c)}{\ignorespaces {The dataset 'before'}}}{35}{subfigure.12.3}}
\@writefile{lof}{\contentsline {subfigure}{\numberline{(d)}{\ignorespaces {The dataset 'only'}}}{35}{subfigure.12.4}}
\@writefile{lof}{\contentsline {figure}{\numberline {4.13}{\ignorespaces The relation between the $\%$ of ommitted images and sensitivity, or precision\relax }}{36}{figure.caption.105}}
\newlabel{qcombined}{{4.13}{36}{The relation between the $\%$ of ommitted images and sensitivity, or precision\relax }{figure.caption.105}{}}
\newlabel{qA}{{4.14a}{37}{Subfigure 4 4.14a}{subfigure.107}{}}
\newlabel{sub@qA}{{(a)}{a}{Subfigure 4 4.14a\relax }{subfigure.107}{}}
\newlabel{qB}{{4.14b}{37}{Subfigure 4 4.14b}{subfigure.108}{}}
\newlabel{sub@qB}{{(b)}{b}{Subfigure 4 4.14b\relax }{subfigure.108}{}}
\@writefile{lof}{\contentsline {figure}{\numberline {4.14}{\ignorespaces The distribution of the number of the worse classified images over the datasets.\relax }}{37}{figure.caption.106}}
\newlabel{quantile}{{4.14}{37}{The distribution of the number of the worse classified images over the datasets.\relax }{figure.caption.106}{}}
\@writefile{lof}{\contentsline {subfigure}{\numberline{(a)}{\ignorespaces {}}}{37}{subfigure.14.1}}
\@writefile{lof}{\contentsline {subfigure}{\numberline{(b)}{\ignorespaces {}}}{37}{subfigure.14.2}}
\newlabel{filtA}{{4.15a}{38}{Subfigure 4 4.15a}{subfigure.110}{}}
\newlabel{sub@filtA}{{(a)}{a}{Subfigure 4 4.15a\relax }{subfigure.110}{}}
\newlabel{filtB}{{4.15b}{38}{Subfigure 4 4.15b}{subfigure.111}{}}
\newlabel{sub@filtB}{{(b)}{b}{Subfigure 4 4.15b\relax }{subfigure.111}{}}
\@writefile{lof}{\contentsline {figure}{\numberline {4.15}{\ignorespaces Example of images in $20\%$ quantile of training images descendingly sorted by the false-negatives occurences\relax }}{38}{figure.caption.109}}
\newlabel{filt}{{4.15}{38}{Example of images in $20\%$ quantile of training images descendingly sorted by the false-negatives occurences\relax }{figure.caption.109}{}}
\@writefile{lof}{\contentsline {subfigure}{\numberline{(a)}{\ignorespaces {}}}{38}{subfigure.15.1}}
\@writefile{lof}{\contentsline {subfigure}{\numberline{(b)}{\ignorespaces {}}}{38}{subfigure.15.2}}
\@writefile{toc}{\contentsline {subsubsection}{Training-set Preprocessing}{39}{section*.112}}
\newlabel{prepomit}{{4.3.7}{39}{Training-set Preprocessing}{section*.112}{}}
\@writefile{lot}{\contentsline {table}{\numberline {4.4}{\ignorespaces Dataset comparison with the training set preprocessing\relax }}{40}{table.caption.113}}
\newlabel{telim}{{4.4}{40}{Dataset comparison with the training set preprocessing\relax }{table.caption.113}{}}
\@setckpt{Chapters/Chapter5}{
\setcounter{page}{41}
\setcounter{equation}{9}
\setcounter{enumi}{2}
\setcounter{enumii}{0}
\setcounter{enumiii}{0}
\setcounter{enumiv}{0}
\setcounter{footnote}{1}
\setcounter{mpfootnote}{0}
\setcounter{part}{0}
\setcounter{chapter}{4}
\setcounter{section}{3}
\setcounter{subsection}{7}
\setcounter{subsubsection}{0}
\setcounter{paragraph}{0}
\setcounter{subparagraph}{0}
\setcounter{figure}{15}
\setcounter{table}{4}
\setcounter{LT@tables}{0}
\setcounter{LT@chunks}{0}
\setcounter{ContinuedFloat}{0}
\setcounter{parentequation}{0}
\setcounter{Item}{11}
\setcounter{Hfootnote}{1}
\setcounter{bookmark@seq@number}{35}
\setcounter{tabx@nest}{0}
\setcounter{listtotal}{0}
\setcounter{listcount}{0}
\setcounter{liststart}{0}
\setcounter{liststop}{0}
\setcounter{citecount}{0}
\setcounter{citetotal}{0}
\setcounter{multicitecount}{0}
\setcounter{multicitetotal}{0}
\setcounter{instcount}{30}
\setcounter{maxnames}{3}
\setcounter{minnames}{1}
\setcounter{maxitems}{3}
\setcounter{minitems}{1}
\setcounter{citecounter}{0}
\setcounter{savedcitecounter}{0}
\setcounter{uniquelist}{0}
\setcounter{uniquename}{0}
\setcounter{refsection}{0}
\setcounter{refsegment}{0}
\setcounter{maxextratitle}{0}
\setcounter{maxextratitleyear}{0}
\setcounter{maxextradate}{0}
\setcounter{maxextraalpha}{0}
\setcounter{abbrvpenalty}{50}
\setcounter{highnamepenalty}{50}
\setcounter{lownamepenalty}{25}
\setcounter{maxparens}{3}
\setcounter{parenlevel}{0}
\setcounter{mincomprange}{10}
\setcounter{maxcomprange}{100000}
\setcounter{mincompwidth}{1}
\setcounter{afterword}{0}
\setcounter{savedafterword}{0}
\setcounter{annotator}{0}
\setcounter{savedannotator}{0}
\setcounter{author}{0}
\setcounter{savedauthor}{0}
\setcounter{bookauthor}{0}
\setcounter{savedbookauthor}{0}
\setcounter{commentator}{0}
\setcounter{savedcommentator}{0}
\setcounter{editor}{0}
\setcounter{savededitor}{0}
\setcounter{editora}{0}
\setcounter{savededitora}{0}
\setcounter{editorb}{0}
\setcounter{savededitorb}{0}
\setcounter{editorc}{0}
\setcounter{savededitorc}{0}
\setcounter{foreword}{0}
\setcounter{savedforeword}{0}
\setcounter{holder}{0}
\setcounter{savedholder}{0}
\setcounter{introduction}{0}
\setcounter{savedintroduction}{0}
\setcounter{namea}{0}
\setcounter{savednamea}{0}
\setcounter{nameb}{0}
\setcounter{savednameb}{0}
\setcounter{namec}{0}
\setcounter{savednamec}{0}
\setcounter{translator}{0}
\setcounter{savedtranslator}{0}
\setcounter{shortauthor}{0}
\setcounter{savedshortauthor}{0}
\setcounter{shorteditor}{0}
\setcounter{savedshorteditor}{0}
\setcounter{labelname}{0}
\setcounter{savedlabelname}{0}
\setcounter{institution}{0}
\setcounter{savedinstitution}{0}
\setcounter{lista}{0}
\setcounter{savedlista}{0}
\setcounter{listb}{0}
\setcounter{savedlistb}{0}
\setcounter{listc}{0}
\setcounter{savedlistc}{0}
\setcounter{listd}{0}
\setcounter{savedlistd}{0}
\setcounter{liste}{0}
\setcounter{savedliste}{0}
\setcounter{listf}{0}
\setcounter{savedlistf}{0}
\setcounter{location}{0}
\setcounter{savedlocation}{0}
\setcounter{organization}{0}
\setcounter{savedorganization}{0}
\setcounter{origlocation}{0}
\setcounter{savedoriglocation}{0}
\setcounter{origpublisher}{0}
\setcounter{savedorigpublisher}{0}
\setcounter{publisher}{0}
\setcounter{savedpublisher}{0}
\setcounter{language}{0}
\setcounter{savedlanguage}{0}
\setcounter{origlanguage}{0}
\setcounter{savedoriglanguage}{0}
\setcounter{pageref}{0}
\setcounter{savedpageref}{0}
\setcounter{textcitecount}{0}
\setcounter{textcitetotal}{0}
\setcounter{textcitemaxnames}{0}
\setcounter{biburlnumpenalty}{0}
\setcounter{biburlucpenalty}{0}
\setcounter{biburllcpenalty}{0}
\setcounter{smartand}{1}
\setcounter{bbx:relatedcount}{0}
\setcounter{bbx:relatedtotal}{0}
\setcounter{KVtest}{0}
\setcounter{subfigure}{0}
\setcounter{subfigure@save}{2}
\setcounter{lofdepth}{1}
\setcounter{subtable}{0}
\setcounter{subtable@save}{0}
\setcounter{lotdepth}{1}
\setcounter{AM@survey}{0}
\setcounter{float@type}{4}
\setcounter{section@level}{3}
}
