\relax 
\providecommand\hyper@newdestlabel[2]{}
\@writefile{toc}{\contentsline {chapter}{\numberline {7}Image to Image Translation}{47}{chapter.135}}
\@writefile{lof}{\addvspace {10\p@ }}
\@writefile{lot}{\addvspace {10\p@ }}
\newlabel{intropix2pix}{{7}{47}{Image to Image Translation}{chapter.135}{}}
\@writefile{lof}{\contentsline {figure}{\numberline {7.1}{\ignorespaces Image to image translation (\cite {pix2pix})}}{47}{figure.caption.136}}
\newlabel{p2pisola}{{7.1}{47}{Image to image translation (\cite {pix2pix})}{figure.caption.136}{}}
\@writefile{toc}{\contentsline {section}{\numberline {7.1}Our Problem Adaption}{49}{section.137}}
\newlabel{foot}{{1}{49}{Our Problem Adaption}{section.137}{}}
\@writefile{toc}{\contentsline {section}{\numberline {7.2}Formal re-Definitions of Objective for Our Purposes}{50}{section.143}}
\newlabel{p2pdefs}{{7.2}{50}{Formal re-Definitions of Objective for Our Purposes}{section.143}{}}
\@writefile{toc}{\contentsline {section}{\numberline {7.3}Loss Selection}{51}{section.145}}
\newlabel{lossel}{{7.3}{51}{Loss Selection}{section.145}{}}
\newlabel{l2no1}{{7.2a}{52}{Subfigure 7 7.2a}{subfigure.147}{}}
\newlabel{sub@l2no1}{{(a)}{a}{Subfigure 7 7.2a\relax }{subfigure.147}{}}
\newlabel{l1no2}{{7.2b}{52}{Subfigure 7 7.2b}{subfigure.148}{}}
\newlabel{sub@l1no2}{{(b)}{b}{Subfigure 7 7.2b\relax }{subfigure.148}{}}
\newlabel{l1no4}{{7.2c}{52}{Subfigure 7 7.2c}{subfigure.149}{}}
\newlabel{sub@l1no4}{{(c)}{c}{Subfigure 7 7.2c\relax }{subfigure.149}{}}
\newlabel{l2no3}{{7.2d}{52}{Subfigure 7 7.2d}{subfigure.150}{}}
\newlabel{sub@l2no3}{{(d)}{d}{Subfigure 7 7.2d\relax }{subfigure.150}{}}
\@writefile{lof}{\contentsline {figure}{\numberline {7.2}{\ignorespaces Comparison of results from the reduced dataset on three epochs}}{52}{figure.caption.146}}
\newlabel{l1vsl2}{{7.2}{52}{Comparison of results from the reduced dataset on three epochs}{figure.caption.146}{}}
\@writefile{lof}{\contentsline {subfigure}{\numberline{(a)}{\ignorespaces {Input contrast microscopy image}}}{52}{subfigure.2.1}}
\@writefile{lof}{\contentsline {subfigure}{\numberline{(b)}{\ignorespaces {Segmentation obtained from \\ the corresponding fluorescence microscopy}}}{52}{subfigure.2.2}}
\@writefile{lof}{\contentsline {subfigure}{\numberline{(c)}{\ignorespaces {Result segmentation from pix2pix \\ neural network with the L1 generator loss}}}{52}{subfigure.2.3}}
\@writefile{lof}{\contentsline {subfigure}{\numberline{(d)}{\ignorespaces {Result segmentation from pix2pix \\ neural network with the L2 generator loss}}}{52}{subfigure.2.4}}
\@writefile{toc}{\contentsline {section}{\numberline {7.4}Impact of Lambda Ratio}{53}{section.151}}
\@writefile{lof}{\contentsline {figure}{\numberline {7.3}{\ignorespaces Comparison of the performance of pix2pix model with different $\lambda $ settings}}{54}{figure.caption.152}}
\newlabel{lambdafigure}{{7.3}{54}{Comparison of the performance of pix2pix model with different $\lambda $ settings}{figure.caption.152}{}}
\@writefile{toc}{\contentsline {section}{\numberline {7.5}Experimental Evaluation}{54}{section.153}}
\newlabel{experimeval}{{7.5}{54}{Experimental Evaluation}{section.153}{}}
\@writefile{lot}{\contentsline {table}{\numberline {7.1}{\ignorespaces Results from the pixel-wise approach extended by the discriminator compared with the original pixel-wise approach}}{54}{table.caption.154}}
\newlabel{withdiskrim}{{7.1}{54}{Results from the pixel-wise approach extended by the discriminator compared with the original pixel-wise approach}{table.caption.154}{}}
\newlabel{bceadam1}{{7.4a}{55}{Subfigure 7 7.4a}{subfigure.156}{}}
\newlabel{sub@bceadam1}{{(a)}{a}{Subfigure 7 7.4a\relax }{subfigure.156}{}}
\newlabel{bcerms2}{{7.4b}{55}{Subfigure 7 7.4b}{subfigure.157}{}}
\newlabel{sub@bcerms2}{{(b)}{b}{Subfigure 7 7.4b\relax }{subfigure.157}{}}
\newlabel{bceadam}{{7.4c}{55}{Subfigure 7 7.4c}{subfigure.158}{}}
\newlabel{sub@bceadam}{{(c)}{c}{Subfigure 7 7.4c\relax }{subfigure.158}{}}
\newlabel{bcerms}{{7.4d}{55}{Subfigure 7 7.4d}{subfigure.159}{}}
\newlabel{sub@bcerms}{{(d)}{d}{Subfigure 7 7.4d\relax }{subfigure.159}{}}
\newlabel{l1adam}{{7.4e}{55}{Subfigure 7 7.4e}{subfigure.160}{}}
\newlabel{sub@l1adam}{{(e)}{e}{Subfigure 7 7.4e\relax }{subfigure.160}{}}
\newlabel{pixwiseim}{{7.4f}{55}{Subfigure 7 7.4f}{subfigure.161}{}}
\newlabel{sub@pixwiseim}{{(f)}{f}{Subfigure 7 7.4f\relax }{subfigure.161}{}}
\@writefile{lof}{\contentsline {figure}{\numberline {7.4}{\ignorespaces Comparison of different pix2pix settings and pixel-wise-loss-based UNet}}{55}{figure.caption.155}}
\newlabel{comppix2pix}{{7.4}{55}{Comparison of different pix2pix settings and pixel-wise-loss-based UNet}{figure.caption.155}{}}
\@writefile{lof}{\contentsline {subfigure}{\numberline{(a)}{\ignorespaces {Input contrast microscopy image}}}{55}{subfigure.4.1}}
\@writefile{lof}{\contentsline {subfigure}{\numberline{(b)}{\ignorespaces {Segmentation obtained \\ from the fluorescence microscopy}}}{55}{subfigure.4.2}}
\@writefile{lof}{\contentsline {subfigure}{\numberline{(c)}{\ignorespaces {Pix2pix with the binary cross-entropy loss, \\ Adam optimizer}}}{55}{subfigure.4.3}}
\@writefile{lof}{\contentsline {subfigure}{\numberline{(d)}{\ignorespaces {Pix2pix with the binary cross-entropy loss, \\ RMS optimizer}}}{55}{subfigure.4.4}}
\@writefile{lof}{\contentsline {subfigure}{\numberline{(e)}{\ignorespaces {Pix2pix with the L1 generator loss, \\ Adam optimizer}}}{55}{subfigure.4.5}}
\@writefile{lof}{\contentsline {subfigure}{\numberline{(f)}{\ignorespaces {Cross-entropy-loss-based UNet, \\ RMS optimizer}}}{55}{subfigure.4.6}}
\newlabel{cex1}{{7.5a}{56}{Subfigure 7 7.5a}{subfigure.163}{}}
\newlabel{sub@cex1}{{(a)}{a}{Subfigure 7 7.5a\relax }{subfigure.163}{}}
\newlabel{cex2}{{7.5b}{56}{Subfigure 7 7.5b}{subfigure.164}{}}
\newlabel{sub@cex2}{{(b)}{b}{Subfigure 7 7.5b\relax }{subfigure.164}{}}
\newlabel{cex3}{{7.5c}{56}{Subfigure 7 7.5c}{subfigure.165}{}}
\newlabel{sub@cex3}{{(c)}{c}{Subfigure 7 7.5c\relax }{subfigure.165}{}}
\newlabel{ma1}{{7.5d}{56}{Subfigure 7 7.5d}{subfigure.166}{}}
\newlabel{sub@ma1}{{(d)}{d}{Subfigure 7 7.5d\relax }{subfigure.166}{}}
\newlabel{ma2}{{7.5e}{56}{Subfigure 7 7.5e}{subfigure.167}{}}
\newlabel{sub@ma2}{{(e)}{e}{Subfigure 7 7.5e\relax }{subfigure.167}{}}
\newlabel{ma3}{{7.5f}{56}{Subfigure 7 7.5f}{subfigure.168}{}}
\newlabel{sub@ma3}{{(f)}{f}{Subfigure 7 7.5f\relax }{subfigure.168}{}}
\newlabel{pex1}{{7.5g}{56}{Subfigure 7 7.5g}{subfigure.169}{}}
\newlabel{sub@pex1}{{(g)}{g}{Subfigure 7 7.5g\relax }{subfigure.169}{}}
\newlabel{pex2}{{7.5h}{56}{Subfigure 7 7.5h}{subfigure.170}{}}
\newlabel{sub@pex2}{{(h)}{h}{Subfigure 7 7.5h\relax }{subfigure.170}{}}
\newlabel{pex3}{{7.5i}{56}{Subfigure 7 7.5i}{subfigure.171}{}}
\newlabel{sub@pex3}{{(i)}{i}{Subfigure 7 7.5i\relax }{subfigure.171}{}}
\@writefile{lof}{\contentsline {figure}{\numberline {7.5}{\ignorespaces Example of result segmentation}}{56}{figure.caption.162}}
\newlabel{uL1l100}{{7.5}{56}{Example of result segmentation}{figure.caption.162}{}}
\@writefile{lof}{\contentsline {subfigure}{\numberline{(a)}{\ignorespaces {}}}{56}{subfigure.5.1}}
\@writefile{lof}{\contentsline {subfigure}{\numberline{(b)}{\ignorespaces {}}}{56}{subfigure.5.2}}
\@writefile{lof}{\contentsline {subfigure}{\numberline{(c)}{\ignorespaces {}}}{56}{subfigure.5.3}}
\@writefile{lof}{\contentsline {subfigure}{\numberline{(d)}{\ignorespaces {}}}{56}{subfigure.5.4}}
\@writefile{lof}{\contentsline {subfigure}{\numberline{(e)}{\ignorespaces {}}}{56}{subfigure.5.5}}
\@writefile{lof}{\contentsline {subfigure}{\numberline{(f)}{\ignorespaces {}}}{56}{subfigure.5.6}}
\@writefile{lof}{\contentsline {subfigure}{\numberline{(g)}{\ignorespaces {}}}{56}{subfigure.5.7}}
\@writefile{lof}{\contentsline {subfigure}{\numberline{(h)}{\ignorespaces {}}}{56}{subfigure.5.8}}
\@writefile{lof}{\contentsline {subfigure}{\numberline{(i)}{\ignorespaces {}}}{56}{subfigure.5.9}}
\@writefile{toc}{\contentsline {section}{\numberline {7.6}Dataset Impact Analysis}{57}{section.172}}
\newlabel{datapix2pix}{{7.6}{57}{Dataset Impact Analysis}{section.172}{}}
\@writefile{lot}{\contentsline {table}{\numberline {7.2}{\ignorespaces Performance of pix2pix on individual datasets}}{57}{table.caption.173}}
\newlabel{p2pdatasettable}{{7.2}{57}{Performance of pix2pix on individual datasets}{table.caption.173}{}}
\newlabel{24h1}{{7.6a}{58}{Subfigure 7 7.6a}{subfigure.175}{}}
\newlabel{sub@24h1}{{(a)}{a}{Subfigure 7 7.6a\relax }{subfigure.175}{}}
\newlabel{24h2}{{7.6b}{58}{Subfigure 7 7.6b}{subfigure.176}{}}
\newlabel{sub@24h2}{{(b)}{b}{Subfigure 7 7.6b\relax }{subfigure.176}{}}
\newlabel{24h3}{{7.6c}{58}{Subfigure 7 7.6c}{subfigure.177}{}}
\newlabel{sub@24h3}{{(c)}{c}{Subfigure 7 7.6c\relax }{subfigure.177}{}}
\newlabel{72h1}{{7.6d}{58}{Subfigure 7 7.6d}{subfigure.178}{}}
\newlabel{sub@72h1}{{(d)}{d}{Subfigure 7 7.6d\relax }{subfigure.178}{}}
\newlabel{72h2}{{7.6e}{58}{Subfigure 7 7.6e}{subfigure.179}{}}
\newlabel{sub@72h2}{{(e)}{e}{Subfigure 7 7.6e\relax }{subfigure.179}{}}
\newlabel{72h3}{{7.6f}{58}{Subfigure 7 7.6f}{subfigure.180}{}}
\newlabel{sub@72h3}{{(f)}{f}{Subfigure 7 7.6f\relax }{subfigure.180}{}}
\newlabel{before1}{{7.6g}{58}{Subfigure 7 7.6g}{subfigure.181}{}}
\newlabel{sub@before1}{{(g)}{g}{Subfigure 7 7.6g\relax }{subfigure.181}{}}
\newlabel{before2}{{7.6h}{58}{Subfigure 7 7.6h}{subfigure.182}{}}
\newlabel{sub@before2}{{(h)}{h}{Subfigure 7 7.6h\relax }{subfigure.182}{}}
\newlabel{before3}{{7.6i}{58}{Subfigure 7 7.6i}{subfigure.183}{}}
\newlabel{sub@before3}{{(i)}{i}{Subfigure 7 7.6i\relax }{subfigure.183}{}}
\newlabel{only1}{{7.6j}{58}{Subfigure 7 7.6j}{subfigure.184}{}}
\newlabel{sub@only1}{{(j)}{j}{Subfigure 7 7.6j\relax }{subfigure.184}{}}
\newlabel{only2}{{7.6k}{58}{Subfigure 7 7.6k}{subfigure.185}{}}
\newlabel{sub@only2}{{(k)}{k}{Subfigure 7 7.6k\relax }{subfigure.185}{}}
\newlabel{only3}{{7.6l}{58}{Subfigure 7 7.6l}{subfigure.186}{}}
\newlabel{sub@only3}{{(l)}{l}{Subfigure 7 7.6l\relax }{subfigure.186}{}}
\@writefile{lof}{\contentsline {figure}{\numberline {7.6}{\ignorespaces Pix2pix output segmentations on individual datasets}}{58}{figure.caption.174}}
\newlabel{pix2pixvis}{{7.6}{58}{Pix2pix output segmentations on individual datasets}{figure.caption.174}{}}
\@writefile{lof}{\contentsline {subfigure}{\numberline{(a)}{\ignorespaces {}}}{58}{subfigure.6.1}}
\@writefile{lof}{\contentsline {subfigure}{\numberline{(b)}{\ignorespaces {}}}{58}{subfigure.6.2}}
\@writefile{lof}{\contentsline {subfigure}{\numberline{(c)}{\ignorespaces {}}}{58}{subfigure.6.3}}
\@writefile{lof}{\contentsline {subfigure}{\numberline{(d)}{\ignorespaces {}}}{58}{subfigure.6.4}}
\@writefile{lof}{\contentsline {subfigure}{\numberline{(e)}{\ignorespaces {}}}{58}{subfigure.6.5}}
\@writefile{lof}{\contentsline {subfigure}{\numberline{(f)}{\ignorespaces {}}}{58}{subfigure.6.6}}
\@writefile{lof}{\contentsline {subfigure}{\numberline{(g)}{\ignorespaces {}}}{58}{subfigure.6.7}}
\@writefile{lof}{\contentsline {subfigure}{\numberline{(h)}{\ignorespaces {}}}{58}{subfigure.6.8}}
\@writefile{lof}{\contentsline {subfigure}{\numberline{(i)}{\ignorespaces {}}}{58}{subfigure.6.9}}
\@writefile{lof}{\contentsline {subfigure}{\numberline{(j)}{\ignorespaces {}}}{58}{subfigure.6.10}}
\@writefile{lof}{\contentsline {subfigure}{\numberline{(k)}{\ignorespaces {}}}{58}{subfigure.6.11}}
\@writefile{lof}{\contentsline {subfigure}{\numberline{(l)}{\ignorespaces {}}}{58}{subfigure.6.12}}
\@writefile{toc}{\contentsline {section}{\numberline {7.7}Overfit Preventing}{59}{section.187}}
\@writefile{toc}{\contentsline {subsection}{\numberline {7.7.1}Early Stopping Results}{59}{subsection.188}}
\@writefile{lot}{\contentsline {table}{\numberline {7.3}{\ignorespaces Pix2pix with generator L1 loss trained on 11 epochs compared to the same network trained on 20epochs}}{59}{table.caption.194}}
\newlabel{11epoch}{{7.3}{59}{Pix2pix with generator L1 loss trained on 11 epochs compared to the same network trained on 20epochs}{table.caption.194}{}}
\@writefile{lof}{\contentsline {figure}{\numberline {7.7}{\ignorespaces The pix2pix losses development}}{60}{figure.caption.189}}
\newlabel{trainvsval}{{7.7}{60}{The pix2pix losses development}{figure.caption.189}{}}
\@writefile{lof}{\contentsline {subfigure}{\numberline{(a)}{\ignorespaces {The generator's training loss}}}{60}{subfigure.7.1}}
\@writefile{lof}{\contentsline {subfigure}{\numberline{(b)}{\ignorespaces {The generator's validation loss}}}{60}{subfigure.7.2}}
\@writefile{lof}{\contentsline {subfigure}{\numberline{(c)}{\ignorespaces {The discriminator's training loss}}}{60}{subfigure.7.3}}
\@writefile{lof}{\contentsline {subfigure}{\numberline{(d)}{\ignorespaces {The discriminator's validaiton loss}}}{60}{subfigure.7.4}}
\@writefile{toc}{\contentsline {section}{\numberline {7.8}Pix2pix Performance Recapitulation}{61}{section.195}}
\newlabel{p2precapsec}{{7.8}{61}{Pix2pix Performance Recapitulation}{section.195}{}}
\@writefile{lot}{\contentsline {table}{\numberline {7.4}{\ignorespaces Performance of pix2pix on individual datasets}}{61}{table.caption.196}}
\newlabel{p2pvsdsttable}{{7.4}{61}{Performance of pix2pix on individual datasets}{table.caption.196}{}}
\@setckpt{Chapters/Chapter6pix2pix}{
\setcounter{page}{62}
\setcounter{equation}{0}
\setcounter{enumi}{3}
\setcounter{enumii}{0}
\setcounter{enumiii}{0}
\setcounter{enumiv}{0}
\setcounter{footnote}{1}
\setcounter{mpfootnote}{0}
\setcounter{part}{0}
\setcounter{chapter}{7}
\setcounter{section}{8}
\setcounter{subsection}{0}
\setcounter{subsubsection}{0}
\setcounter{paragraph}{0}
\setcounter{subparagraph}{0}
\setcounter{figure}{7}
\setcounter{table}{4}
\setcounter{LT@tables}{0}
\setcounter{LT@chunks}{0}
\setcounter{ContinuedFloat}{0}
\setcounter{parentequation}{0}
\setcounter{Item}{22}
\setcounter{Hfootnote}{4}
\setcounter{bookmark@seq@number}{47}
\setcounter{tabx@nest}{0}
\setcounter{listtotal}{0}
\setcounter{listcount}{0}
\setcounter{liststart}{0}
\setcounter{liststop}{0}
\setcounter{citecount}{0}
\setcounter{citetotal}{0}
\setcounter{multicitecount}{0}
\setcounter{multicitetotal}{0}
\setcounter{instcount}{111}
\setcounter{maxnames}{3}
\setcounter{minnames}{1}
\setcounter{maxitems}{3}
\setcounter{minitems}{1}
\setcounter{citecounter}{0}
\setcounter{savedcitecounter}{0}
\setcounter{uniquelist}{0}
\setcounter{uniquename}{0}
\setcounter{refsection}{0}
\setcounter{refsegment}{0}
\setcounter{maxextratitle}{0}
\setcounter{maxextratitleyear}{0}
\setcounter{maxextradate}{0}
\setcounter{maxextraalpha}{0}
\setcounter{abbrvpenalty}{50}
\setcounter{highnamepenalty}{50}
\setcounter{lownamepenalty}{25}
\setcounter{maxparens}{3}
\setcounter{parenlevel}{0}
\setcounter{mincomprange}{10}
\setcounter{maxcomprange}{100000}
\setcounter{mincompwidth}{1}
\setcounter{afterword}{0}
\setcounter{savedafterword}{0}
\setcounter{annotator}{0}
\setcounter{savedannotator}{0}
\setcounter{author}{0}
\setcounter{savedauthor}{0}
\setcounter{bookauthor}{0}
\setcounter{savedbookauthor}{0}
\setcounter{commentator}{0}
\setcounter{savedcommentator}{0}
\setcounter{editor}{0}
\setcounter{savededitor}{0}
\setcounter{editora}{0}
\setcounter{savededitora}{0}
\setcounter{editorb}{0}
\setcounter{savededitorb}{0}
\setcounter{editorc}{0}
\setcounter{savededitorc}{0}
\setcounter{foreword}{0}
\setcounter{savedforeword}{0}
\setcounter{holder}{0}
\setcounter{savedholder}{0}
\setcounter{introduction}{0}
\setcounter{savedintroduction}{0}
\setcounter{namea}{0}
\setcounter{savednamea}{0}
\setcounter{nameb}{0}
\setcounter{savednameb}{0}
\setcounter{namec}{0}
\setcounter{savednamec}{0}
\setcounter{translator}{0}
\setcounter{savedtranslator}{0}
\setcounter{shortauthor}{0}
\setcounter{savedshortauthor}{0}
\setcounter{shorteditor}{0}
\setcounter{savedshorteditor}{0}
\setcounter{labelname}{0}
\setcounter{savedlabelname}{0}
\setcounter{institution}{0}
\setcounter{savedinstitution}{0}
\setcounter{lista}{0}
\setcounter{savedlista}{0}
\setcounter{listb}{0}
\setcounter{savedlistb}{0}
\setcounter{listc}{0}
\setcounter{savedlistc}{0}
\setcounter{listd}{0}
\setcounter{savedlistd}{0}
\setcounter{liste}{0}
\setcounter{savedliste}{0}
\setcounter{listf}{0}
\setcounter{savedlistf}{0}
\setcounter{location}{0}
\setcounter{savedlocation}{0}
\setcounter{organization}{0}
\setcounter{savedorganization}{0}
\setcounter{origlocation}{0}
\setcounter{savedoriglocation}{0}
\setcounter{origpublisher}{0}
\setcounter{savedorigpublisher}{0}
\setcounter{publisher}{0}
\setcounter{savedpublisher}{0}
\setcounter{language}{0}
\setcounter{savedlanguage}{0}
\setcounter{origlanguage}{0}
\setcounter{savedoriglanguage}{0}
\setcounter{pageref}{0}
\setcounter{savedpageref}{0}
\setcounter{textcitecount}{0}
\setcounter{textcitetotal}{0}
\setcounter{textcitemaxnames}{0}
\setcounter{biburlnumpenalty}{0}
\setcounter{biburlucpenalty}{0}
\setcounter{biburllcpenalty}{0}
\setcounter{smartand}{1}
\setcounter{bbx:relatedcount}{0}
\setcounter{bbx:relatedtotal}{0}
\setcounter{KVtest}{0}
\setcounter{subfigure}{0}
\setcounter{subfigure@save}{4}
\setcounter{lofdepth}{1}
\setcounter{subtable}{0}
\setcounter{subtable@save}{0}
\setcounter{lotdepth}{1}
\setcounter{AM@survey}{0}
\setcounter{float@type}{4}
\setcounter{pp@next@reset}{0}
\setcounter{section@level}{1}
}
