\relax 
\providecommand\hyper@newdestlabel[2]{}
\@writefile{toc}{\contentsline {chapter}{\numberline {8}Evaluation of the Drug Effects}{65}{chapter.176}}
\@writefile{lof}{\addvspace {10\p@ }}
\@writefile{lot}{\addvspace {10\p@ }}
\newlabel{svm}{{8}{65}{Evaluation of the Drug Effects}{chapter.176}{}}
\@writefile{toc}{\contentsline {section}{\numberline {8.1}Preprocessing}{65}{section.177}}
\newlabel{preprocsec}{{8.1}{65}{Preprocessing}{section.177}{}}
\newlabel{orig_wat}{{8.1a}{66}{Subfigure 8 8.1a}{subfigure.179}{}}
\newlabel{sub@orig_wat}{{(a)}{a}{Subfigure 8 8.1a\relax }{subfigure.179}{}}
\newlabel{wat1}{{8.1b}{66}{Subfigure 8 8.1b}{subfigure.180}{}}
\newlabel{sub@wat1}{{(b)}{b}{Subfigure 8 8.1b\relax }{subfigure.180}{}}
\newlabel{orig_wat}{{8.1c}{66}{Subfigure 8 8.1c}{subfigure.181}{}}
\newlabel{sub@orig_wat}{{(c)}{c}{Subfigure 8 8.1c\relax }{subfigure.181}{}}
\newlabel{wat}{{8.1d}{66}{Subfigure 8 8.1d}{subfigure.182}{}}
\newlabel{sub@wat}{{(d)}{d}{Subfigure 8 8.1d\relax }{subfigure.182}{}}
\newlabel{orig_wat}{{8.1e}{66}{Subfigure 8 8.1e}{subfigure.183}{}}
\newlabel{sub@orig_wat}{{(e)}{e}{Subfigure 8 8.1e\relax }{subfigure.183}{}}
\newlabel{wat}{{8.1f}{66}{Subfigure 8 8.1f}{subfigure.184}{}}
\newlabel{sub@wat}{{(f)}{f}{Subfigure 8 8.1f\relax }{subfigure.184}{}}
\@writefile{lof}{\contentsline {figure}{\numberline {8.1}{\ignorespaces Classification accuracy when changing regularization constant}}{66}{figure.caption.178}}
\newlabel{watershedsplit}{{8.1}{66}{Classification accuracy when changing regularization constant}{figure.caption.178}{}}
\@writefile{lof}{\contentsline {subfigure}{\numberline{(a)}{\ignorespaces {Original segmentation (zoomed)}}}{66}{subfigure.1.1}}
\@writefile{lof}{\contentsline {subfigure}{\numberline{(b)}{\ignorespaces {Watershed preprocessing (zoomed)}}}{66}{subfigure.1.2}}
\@writefile{lof}{\contentsline {subfigure}{\numberline{(c)}{\ignorespaces {Original segmentation (zoomed)}}}{66}{subfigure.1.3}}
\@writefile{lof}{\contentsline {subfigure}{\numberline{(d)}{\ignorespaces {Watershed preprocessing (zoomed)}}}{66}{subfigure.1.4}}
\@writefile{lof}{\contentsline {subfigure}{\numberline{(e)}{\ignorespaces {Original segmentation (zoomed)}}}{66}{subfigure.1.5}}
\@writefile{lof}{\contentsline {subfigure}{\numberline{(f)}{\ignorespaces {Watershed preprocessing (zoomed)}}}{66}{subfigure.1.6}}
\@writefile{toc}{\contentsline {section}{\numberline {8.2}Feature Extraction}{67}{section.185}}
\newlabel{featuresec}{{8.2}{67}{Feature Extraction}{section.185}{}}
\newlabel{area}{{1}{67}{Feature Extraction}{Item.186}{}}
\newlabel{ratio}{{5}{68}{Feature Extraction}{Item.190}{}}
\@writefile{toc}{\contentsline {section}{\numberline {8.3}Classifier Training}{68}{section.191}}
\@writefile{lof}{\contentsline {figure}{\numberline {8.2}{\ignorespaces Feature selection}}{69}{figure.caption.192}}
\newlabel{featuresim}{{8.2}{69}{Feature selection}{figure.caption.192}{}}
\@writefile{lof}{\contentsline {figure}{\numberline {8.3}{\ignorespaces Regularization impact on SVM}}{69}{figure.caption.193}}
\newlabel{Cim}{{8.3}{69}{Regularization impact on SVM}{figure.caption.193}{}}
\@writefile{lof}{\contentsline {figure}{\numberline {8.4}{\ignorespaces Polynomial kernel}}{70}{figure.caption.194}}
\newlabel{coef0im}{{8.4}{70}{Polynomial kernel}{figure.caption.194}{}}
\@writefile{lot}{\contentsline {table}{\numberline {8.1}{\ignorespaces Pairwise classification}}{71}{table.caption.195}}
\newlabel{svmpairwise}{{8.1}{71}{Pairwise classification}{table.caption.195}{}}
\@writefile{lof}{\contentsline {figure}{\numberline {8.5}{\ignorespaces Classes occurences}}{72}{figure.caption.196}}
\newlabel{occurclasses}{{8.5}{72}{Classes occurences}{figure.caption.196}{}}
\@setckpt{Chapters/ChapterSVM}{
\setcounter{page}{73}
\setcounter{equation}{0}
\setcounter{enumi}{5}
\setcounter{enumii}{0}
\setcounter{enumiii}{0}
\setcounter{enumiv}{0}
\setcounter{footnote}{0}
\setcounter{mpfootnote}{0}
\setcounter{part}{0}
\setcounter{chapter}{8}
\setcounter{section}{3}
\setcounter{subsection}{0}
\setcounter{subsubsection}{0}
\setcounter{paragraph}{0}
\setcounter{subparagraph}{0}
\setcounter{figure}{5}
\setcounter{table}{1}
\setcounter{LT@tables}{0}
\setcounter{LT@chunks}{0}
\setcounter{ContinuedFloat}{0}
\setcounter{parentequation}{0}
\setcounter{Item}{19}
\setcounter{Hfootnote}{3}
\setcounter{bookmark@seq@number}{54}
\setcounter{tabx@nest}{0}
\setcounter{listtotal}{0}
\setcounter{listcount}{0}
\setcounter{liststart}{0}
\setcounter{liststop}{0}
\setcounter{citecount}{0}
\setcounter{citetotal}{0}
\setcounter{multicitecount}{0}
\setcounter{multicitetotal}{0}
\setcounter{instcount}{114}
\setcounter{maxnames}{3}
\setcounter{minnames}{1}
\setcounter{maxitems}{3}
\setcounter{minitems}{1}
\setcounter{citecounter}{0}
\setcounter{savedcitecounter}{0}
\setcounter{uniquelist}{0}
\setcounter{uniquename}{0}
\setcounter{refsection}{0}
\setcounter{refsegment}{0}
\setcounter{maxextratitle}{0}
\setcounter{maxextratitleyear}{0}
\setcounter{maxextradate}{0}
\setcounter{maxextraalpha}{0}
\setcounter{abbrvpenalty}{50}
\setcounter{highnamepenalty}{50}
\setcounter{lownamepenalty}{25}
\setcounter{maxparens}{3}
\setcounter{parenlevel}{0}
\setcounter{mincomprange}{10}
\setcounter{maxcomprange}{100000}
\setcounter{mincompwidth}{1}
\setcounter{afterword}{0}
\setcounter{savedafterword}{0}
\setcounter{annotator}{0}
\setcounter{savedannotator}{0}
\setcounter{author}{0}
\setcounter{savedauthor}{0}
\setcounter{bookauthor}{0}
\setcounter{savedbookauthor}{0}
\setcounter{commentator}{0}
\setcounter{savedcommentator}{0}
\setcounter{editor}{0}
\setcounter{savededitor}{0}
\setcounter{editora}{0}
\setcounter{savededitora}{0}
\setcounter{editorb}{0}
\setcounter{savededitorb}{0}
\setcounter{editorc}{0}
\setcounter{savededitorc}{0}
\setcounter{foreword}{0}
\setcounter{savedforeword}{0}
\setcounter{holder}{0}
\setcounter{savedholder}{0}
\setcounter{introduction}{0}
\setcounter{savedintroduction}{0}
\setcounter{namea}{0}
\setcounter{savednamea}{0}
\setcounter{nameb}{0}
\setcounter{savednameb}{0}
\setcounter{namec}{0}
\setcounter{savednamec}{0}
\setcounter{translator}{0}
\setcounter{savedtranslator}{0}
\setcounter{shortauthor}{0}
\setcounter{savedshortauthor}{0}
\setcounter{shorteditor}{0}
\setcounter{savedshorteditor}{0}
\setcounter{labelname}{0}
\setcounter{savedlabelname}{0}
\setcounter{institution}{0}
\setcounter{savedinstitution}{0}
\setcounter{lista}{0}
\setcounter{savedlista}{0}
\setcounter{listb}{0}
\setcounter{savedlistb}{0}
\setcounter{listc}{0}
\setcounter{savedlistc}{0}
\setcounter{listd}{0}
\setcounter{savedlistd}{0}
\setcounter{liste}{0}
\setcounter{savedliste}{0}
\setcounter{listf}{0}
\setcounter{savedlistf}{0}
\setcounter{location}{0}
\setcounter{savedlocation}{0}
\setcounter{organization}{0}
\setcounter{savedorganization}{0}
\setcounter{origlocation}{0}
\setcounter{savedoriglocation}{0}
\setcounter{origpublisher}{0}
\setcounter{savedorigpublisher}{0}
\setcounter{publisher}{0}
\setcounter{savedpublisher}{0}
\setcounter{language}{0}
\setcounter{savedlanguage}{0}
\setcounter{origlanguage}{0}
\setcounter{savedoriglanguage}{0}
\setcounter{pageref}{0}
\setcounter{savedpageref}{0}
\setcounter{textcitecount}{0}
\setcounter{textcitetotal}{0}
\setcounter{textcitemaxnames}{0}
\setcounter{biburlnumpenalty}{0}
\setcounter{biburlucpenalty}{0}
\setcounter{biburllcpenalty}{0}
\setcounter{smartand}{1}
\setcounter{bbx:relatedcount}{0}
\setcounter{bbx:relatedtotal}{0}
\setcounter{KVtest}{0}
\setcounter{subfigure}{0}
\setcounter{subfigure@save}{6}
\setcounter{lofdepth}{1}
\setcounter{subtable}{0}
\setcounter{subtable@save}{0}
\setcounter{lotdepth}{1}
\setcounter{AM@survey}{0}
\setcounter{float@type}{4}
\setcounter{section@level}{1}
}
