\relax 
\providecommand\hyper@newdestlabel[2]{}
\@writefile{toc}{\contentsline {chapter}{\numberline {7}Image to Image Translation}{45}{chapter.127}}
\@writefile{lof}{\addvspace {10\p@ }}
\@writefile{lot}{\addvspace {10\p@ }}
\newlabel{intropix2pix}{{7}{45}{Image to Image Translation}{chapter.127}{}}
\@writefile{toc}{\contentsline {section}{\numberline {7.1}Our Problem Adaption}{46}{section.128}}
\@writefile{toc}{\contentsline {section}{\numberline {7.2}Formal re-Definitions of Objective for Our Purposes}{47}{section.130}}
\newlabel{p2pdefs}{{7.2}{47}{Formal re-Definitions of Objective for Our Purposes}{section.130}{}}
\@writefile{toc}{\contentsline {section}{\numberline {7.3}Loss Selection}{49}{section.131}}
\newlabel{lossel}{{7.3}{49}{Loss Selection}{section.131}{}}
\newlabel{l2no}{{7.1a}{50}{Subfigure 7 7.1a}{subfigure.133}{}}
\newlabel{sub@l2no}{{(a)}{a}{Subfigure 7 7.1a\relax }{subfigure.133}{}}
\newlabel{l1no}{{7.1b}{50}{Subfigure 7 7.1b}{subfigure.134}{}}
\newlabel{sub@l1no}{{(b)}{b}{Subfigure 7 7.1b\relax }{subfigure.134}{}}
\@writefile{lof}{\contentsline {figure}{\numberline {7.1}{\ignorespaces Comparison of results from the reduced dataset on three epochs}}{50}{figure.caption.132}}
\newlabel{l1vsl2}{{7.1}{50}{Comparison of results from the reduced dataset on three epochs}{figure.caption.132}{}}
\@writefile{lof}{\contentsline {subfigure}{\numberline{(a)}{\ignorespaces {On the left there is a result segmenation from pix2pix NN with L2 loss, on the right there is a reference.}}}{50}{subfigure.1.1}}
\@writefile{lof}{\contentsline {subfigure}{\numberline{(b)}{\ignorespaces {On the left there is a result segmenation from pix2pix NN with L1 loss, on the right there is a reference.}}}{50}{subfigure.1.2}}
\newlabel{l1forew}{{7.2a}{51}{Subfigure 7 7.2a}{subfigure.136}{}}
\newlabel{sub@l1forew}{{(a)}{a}{Subfigure 7 7.2a\relax }{subfigure.136}{}}
\newlabel{l1backw}{{7.2b}{51}{Subfigure 7 7.2b}{subfigure.137}{}}
\newlabel{sub@l1backw}{{(b)}{b}{Subfigure 7 7.2b\relax }{subfigure.137}{}}
\newlabel{l1now}{{7.2c}{51}{Subfigure 7 7.2c}{subfigure.138}{}}
\newlabel{sub@l1now}{{(c)}{c}{Subfigure 7 7.2c\relax }{subfigure.138}{}}
\@writefile{lof}{\contentsline {figure}{\numberline {7.2}{\ignorespaces Comparison of the different loss weighting results from the reduced dataset on three epochs}}{51}{figure.caption.135}}
\newlabel{weights}{{7.2}{51}{Comparison of the different loss weighting results from the reduced dataset on three epochs}{figure.caption.135}{}}
\@writefile{lof}{\contentsline {subfigure}{\numberline{(a)}{\ignorespaces {$w= 1/w_{approx}$}}}{51}{subfigure.2.1}}
\@writefile{lof}{\contentsline {subfigure}{\numberline{(b)}{\ignorespaces {$w=w_{approx}$}}}{51}{subfigure.2.2}}
\@writefile{lof}{\contentsline {subfigure}{\numberline{(c)}{\ignorespaces {$w = 1$}}}{51}{subfigure.2.3}}
\@writefile{toc}{\contentsline {section}{\numberline {7.4}Experimental evaluation}{52}{section.139}}
\newlabel{experimeval}{{7.4}{52}{Experimental evaluation}{section.139}{}}
\@writefile{lot}{\contentsline {table}{\numberline {7.1}{\ignorespaces Results from the pixel-wise approach extended by the discriminator compared with the original pixel-wise approach}}{52}{table.caption.141}}
\newlabel{withdiskrim}{{7.1}{52}{Results from the pixel-wise approach extended by the discriminator compared with the original pixel-wise approach}{table.caption.141}{}}
\@writefile{lof}{\contentsline {figure}{\numberline {7.3}{\ignorespaces Example of result segmentation}}{53}{figure.caption.140}}
\newlabel{uL1l100}{{7.3}{53}{Example of result segmentation}{figure.caption.140}{}}
\newlabel{bceadam}{{7.4a}{54}{Subfigure 7 7.4a}{subfigure.145}{}}
\newlabel{sub@bceadam}{{(a)}{a}{Subfigure 7 7.4a\relax }{subfigure.145}{}}
\newlabel{bcerms}{{7.4b}{54}{Subfigure 7 7.4b}{subfigure.146}{}}
\newlabel{sub@bcerms}{{(b)}{b}{Subfigure 7 7.4b\relax }{subfigure.146}{}}
\newlabel{l1adam}{{7.4c}{54}{Subfigure 7 7.4c}{subfigure.147}{}}
\newlabel{sub@l1adam}{{(c)}{c}{Subfigure 7 7.4c\relax }{subfigure.147}{}}
\newlabel{pixwiseim}{{7.4d}{54}{Subfigure 7 7.4d}{subfigure.148}{}}
\newlabel{sub@pixwiseim}{{(d)}{d}{Subfigure 7 7.4d\relax }{subfigure.148}{}}
\@writefile{lof}{\contentsline {figure}{\numberline {7.4}{\ignorespaces Comparison of different pix2pix settings and pixel-wise-loss-based UNet}}{54}{figure.caption.144}}
\newlabel{comppix2pix}{{7.4}{54}{Comparison of different pix2pix settings and pixel-wise-loss-based UNet}{figure.caption.144}{}}
\@writefile{lof}{\contentsline {subfigure}{\numberline{(a)}{\ignorespaces {Pix2pix with the binary cross-entropy loss, \\ Adam optimizer}}}{54}{subfigure.4.1}}
\@writefile{lof}{\contentsline {subfigure}{\numberline{(b)}{\ignorespaces {Pix2pix with the binary cross-entropy loss, \\ RMS optimizer}}}{54}{subfigure.4.2}}
\@writefile{lof}{\contentsline {subfigure}{\numberline{(c)}{\ignorespaces {Pix2pix with the L1 loss, \\ Adam optimizer}}}{54}{subfigure.4.3}}
\@writefile{lof}{\contentsline {subfigure}{\numberline{(d)}{\ignorespaces {Cross-entropy-loss-based UNet, \\ RMS optimizer}}}{54}{subfigure.4.4}}
\@writefile{toc}{\contentsline {section}{\numberline {7.5}L1 Loss Weighing}{55}{section.149}}
\newlabel{wsec}{{7.5}{55}{L1 Loss Weighing}{section.149}{}}
\@writefile{lot}{\contentsline {table}{\numberline {7.2}{\ignorespaces Different weighing of foreground and background}}{55}{table.caption.150}}
\newlabel{weightable}{{7.2}{55}{Different weighing of foreground and background}{table.caption.150}{}}
\@writefile{toc}{\contentsline {section}{\numberline {7.6}Impact of Lambda Ratio}{55}{section.151}}
\@writefile{lof}{\contentsline {figure}{\numberline {7.5}{\ignorespaces Comparison of the performance of pix2pix model with different $\lambda $ settings}}{56}{figure.caption.152}}
\newlabel{lambdafigure}{{7.5}{56}{Comparison of the performance of pix2pix model with different $\lambda $ settings}{figure.caption.152}{}}
\@writefile{toc}{\contentsline {section}{\numberline {7.7}Dataset Impact Analysis}{56}{section.153}}
\@writefile{lot}{\contentsline {table}{\numberline {7.3}{\ignorespaces Performance of pix2pix on individual datasets}}{56}{table.caption.154}}
\newlabel{p2pdatasettable}{{7.3}{56}{Performance of pix2pix on individual datasets}{table.caption.154}{}}
\newlabel{24h1}{{7.6a}{58}{Subfigure 7 7.6a}{subfigure.156}{}}
\newlabel{sub@24h1}{{(a)}{a}{Subfigure 7 7.6a\relax }{subfigure.156}{}}
\newlabel{24h2}{{7.6b}{58}{Subfigure 7 7.6b}{subfigure.157}{}}
\newlabel{sub@24h2}{{(b)}{b}{Subfigure 7 7.6b\relax }{subfigure.157}{}}
\newlabel{24h3}{{7.6c}{58}{Subfigure 7 7.6c}{subfigure.158}{}}
\newlabel{sub@24h3}{{(c)}{c}{Subfigure 7 7.6c\relax }{subfigure.158}{}}
\newlabel{72h1}{{7.6d}{58}{Subfigure 7 7.6d}{subfigure.159}{}}
\newlabel{sub@72h1}{{(d)}{d}{Subfigure 7 7.6d\relax }{subfigure.159}{}}
\newlabel{72h2}{{7.6e}{58}{Subfigure 7 7.6e}{subfigure.160}{}}
\newlabel{sub@72h2}{{(e)}{e}{Subfigure 7 7.6e\relax }{subfigure.160}{}}
\newlabel{72h3}{{7.6f}{58}{Subfigure 7 7.6f}{subfigure.161}{}}
\newlabel{sub@72h3}{{(f)}{f}{Subfigure 7 7.6f\relax }{subfigure.161}{}}
\newlabel{before1}{{7.6g}{58}{Subfigure 7 7.6g}{subfigure.162}{}}
\newlabel{sub@before1}{{(g)}{g}{Subfigure 7 7.6g\relax }{subfigure.162}{}}
\newlabel{before2}{{7.6h}{58}{Subfigure 7 7.6h}{subfigure.163}{}}
\newlabel{sub@before2}{{(h)}{h}{Subfigure 7 7.6h\relax }{subfigure.163}{}}
\newlabel{before3}{{7.6i}{58}{Subfigure 7 7.6i}{subfigure.164}{}}
\newlabel{sub@before3}{{(i)}{i}{Subfigure 7 7.6i\relax }{subfigure.164}{}}
\newlabel{only1}{{7.6j}{58}{Subfigure 7 7.6j}{subfigure.165}{}}
\newlabel{sub@only1}{{(j)}{j}{Subfigure 7 7.6j\relax }{subfigure.165}{}}
\newlabel{only2}{{7.6k}{58}{Subfigure 7 7.6k}{subfigure.166}{}}
\newlabel{sub@only2}{{(k)}{k}{Subfigure 7 7.6k\relax }{subfigure.166}{}}
\newlabel{only3}{{7.6l}{58}{Subfigure 7 7.6l}{subfigure.167}{}}
\newlabel{sub@only3}{{(l)}{l}{Subfigure 7 7.6l\relax }{subfigure.167}{}}
\@writefile{lof}{\contentsline {figure}{\numberline {7.6}{\ignorespaces Pix2pix output segmentations on individual datasets}}{58}{figure.caption.155}}
\newlabel{pix2pixvis}{{7.6}{58}{Pix2pix output segmentations on individual datasets}{figure.caption.155}{}}
\@writefile{lof}{\contentsline {subfigure}{\numberline{(a)}{\ignorespaces {}}}{58}{subfigure.6.1}}
\@writefile{lof}{\contentsline {subfigure}{\numberline{(b)}{\ignorespaces {}}}{58}{subfigure.6.2}}
\@writefile{lof}{\contentsline {subfigure}{\numberline{(c)}{\ignorespaces {}}}{58}{subfigure.6.3}}
\@writefile{lof}{\contentsline {subfigure}{\numberline{(d)}{\ignorespaces {}}}{58}{subfigure.6.4}}
\@writefile{lof}{\contentsline {subfigure}{\numberline{(e)}{\ignorespaces {}}}{58}{subfigure.6.5}}
\@writefile{lof}{\contentsline {subfigure}{\numberline{(f)}{\ignorespaces {}}}{58}{subfigure.6.6}}
\@writefile{lof}{\contentsline {subfigure}{\numberline{(g)}{\ignorespaces {}}}{58}{subfigure.6.7}}
\@writefile{lof}{\contentsline {subfigure}{\numberline{(h)}{\ignorespaces {}}}{58}{subfigure.6.8}}
\@writefile{lof}{\contentsline {subfigure}{\numberline{(i)}{\ignorespaces {}}}{58}{subfigure.6.9}}
\@writefile{lof}{\contentsline {subfigure}{\numberline{(j)}{\ignorespaces {}}}{58}{subfigure.6.10}}
\@writefile{lof}{\contentsline {subfigure}{\numberline{(k)}{\ignorespaces {}}}{58}{subfigure.6.11}}
\@writefile{lof}{\contentsline {subfigure}{\numberline{(l)}{\ignorespaces {}}}{58}{subfigure.6.12}}
\@writefile{toc}{\contentsline {section}{\numberline {7.8}Overfit Preventing}{59}{section.168}}
\@writefile{lot}{\contentsline {table}{\numberline {7.4}{\ignorespaces Pix2pix with L1 loss (with higher weight for false-positive detections) trained on 11 epochs compared to the same network trained on 20epochs}}{59}{table.caption.174}}
\newlabel{11epoch}{{7.4}{59}{Pix2pix with L1 loss (with higher weight for false-positive detections) trained on 11 epochs compared to the same network trained on 20epochs}{table.caption.174}{}}
\@writefile{lof}{\contentsline {figure}{\numberline {7.7}{\ignorespaces The pix2pix losses development}}{60}{figure.caption.169}}
\newlabel{trainvsval}{{7.7}{60}{The pix2pix losses development}{figure.caption.169}{}}
\@writefile{lof}{\contentsline {subfigure}{\numberline{(a)}{\ignorespaces {The generator's training loss}}}{60}{subfigure.7.1}}
\@writefile{lof}{\contentsline {subfigure}{\numberline{(b)}{\ignorespaces {The generator's validation loss}}}{60}{subfigure.7.2}}
\@writefile{lof}{\contentsline {subfigure}{\numberline{(c)}{\ignorespaces {The discriminator's training loss}}}{60}{subfigure.7.3}}
\@writefile{lof}{\contentsline {subfigure}{\numberline{(d)}{\ignorespaces {The discriminator's validaiton loss}}}{60}{subfigure.7.4}}
\@writefile{toc}{\contentsline {section}{\numberline {7.9}Pix2pix Performance Recapitulation}{61}{section.175}}
\newlabel{p2precapsec}{{7.9}{61}{Pix2pix Performance Recapitulation}{section.175}{}}
\@writefile{lot}{\contentsline {table}{\numberline {7.5}{\ignorespaces Performance of pix2pix on individual datasets}}{61}{table.caption.176}}
\newlabel{p2pvsdsttable}{{7.5}{61}{Performance of pix2pix on individual datasets}{table.caption.176}{}}
\@setckpt{Chapters/chaptersold/Chapter6}{
\setcounter{page}{62}
\setcounter{equation}{0}
\setcounter{enumi}{2}
\setcounter{enumii}{0}
\setcounter{enumiii}{0}
\setcounter{enumiv}{0}
\setcounter{footnote}{2}
\setcounter{mpfootnote}{0}
\setcounter{part}{0}
\setcounter{chapter}{7}
\setcounter{section}{9}
\setcounter{subsection}{0}
\setcounter{subsubsection}{0}
\setcounter{paragraph}{0}
\setcounter{subparagraph}{0}
\setcounter{figure}{7}
\setcounter{table}{5}
\setcounter{LT@tables}{0}
\setcounter{LT@chunks}{0}
\setcounter{ContinuedFloat}{0}
\setcounter{parentequation}{0}
\setcounter{Item}{19}
\setcounter{Hfootnote}{3}
\setcounter{bookmark@seq@number}{47}
\setcounter{tabx@nest}{0}
\setcounter{listtotal}{0}
\setcounter{listcount}{0}
\setcounter{liststart}{0}
\setcounter{liststop}{0}
\setcounter{citecount}{0}
\setcounter{citetotal}{0}
\setcounter{multicitecount}{0}
\setcounter{multicitetotal}{0}
\setcounter{instcount}{105}
\setcounter{maxnames}{3}
\setcounter{minnames}{1}
\setcounter{maxitems}{3}
\setcounter{minitems}{1}
\setcounter{citecounter}{0}
\setcounter{savedcitecounter}{0}
\setcounter{uniquelist}{0}
\setcounter{uniquename}{0}
\setcounter{refsection}{0}
\setcounter{refsegment}{0}
\setcounter{maxextratitle}{0}
\setcounter{maxextratitleyear}{0}
\setcounter{maxextradate}{0}
\setcounter{maxextraalpha}{0}
\setcounter{abbrvpenalty}{50}
\setcounter{highnamepenalty}{50}
\setcounter{lownamepenalty}{25}
\setcounter{maxparens}{3}
\setcounter{parenlevel}{0}
\setcounter{mincomprange}{10}
\setcounter{maxcomprange}{100000}
\setcounter{mincompwidth}{1}
\setcounter{afterword}{0}
\setcounter{savedafterword}{0}
\setcounter{annotator}{0}
\setcounter{savedannotator}{0}
\setcounter{author}{0}
\setcounter{savedauthor}{0}
\setcounter{bookauthor}{0}
\setcounter{savedbookauthor}{0}
\setcounter{commentator}{0}
\setcounter{savedcommentator}{0}
\setcounter{editor}{0}
\setcounter{savededitor}{0}
\setcounter{editora}{0}
\setcounter{savededitora}{0}
\setcounter{editorb}{0}
\setcounter{savededitorb}{0}
\setcounter{editorc}{0}
\setcounter{savededitorc}{0}
\setcounter{foreword}{0}
\setcounter{savedforeword}{0}
\setcounter{holder}{0}
\setcounter{savedholder}{0}
\setcounter{introduction}{0}
\setcounter{savedintroduction}{0}
\setcounter{namea}{0}
\setcounter{savednamea}{0}
\setcounter{nameb}{0}
\setcounter{savednameb}{0}
\setcounter{namec}{0}
\setcounter{savednamec}{0}
\setcounter{translator}{0}
\setcounter{savedtranslator}{0}
\setcounter{shortauthor}{0}
\setcounter{savedshortauthor}{0}
\setcounter{shorteditor}{0}
\setcounter{savedshorteditor}{0}
\setcounter{labelname}{0}
\setcounter{savedlabelname}{0}
\setcounter{institution}{0}
\setcounter{savedinstitution}{0}
\setcounter{lista}{0}
\setcounter{savedlista}{0}
\setcounter{listb}{0}
\setcounter{savedlistb}{0}
\setcounter{listc}{0}
\setcounter{savedlistc}{0}
\setcounter{listd}{0}
\setcounter{savedlistd}{0}
\setcounter{liste}{0}
\setcounter{savedliste}{0}
\setcounter{listf}{0}
\setcounter{savedlistf}{0}
\setcounter{location}{0}
\setcounter{savedlocation}{0}
\setcounter{organization}{0}
\setcounter{savedorganization}{0}
\setcounter{origlocation}{0}
\setcounter{savedoriglocation}{0}
\setcounter{origpublisher}{0}
\setcounter{savedorigpublisher}{0}
\setcounter{publisher}{0}
\setcounter{savedpublisher}{0}
\setcounter{language}{0}
\setcounter{savedlanguage}{0}
\setcounter{origlanguage}{0}
\setcounter{savedoriglanguage}{0}
\setcounter{pageref}{0}
\setcounter{savedpageref}{0}
\setcounter{textcitecount}{0}
\setcounter{textcitetotal}{0}
\setcounter{textcitemaxnames}{0}
\setcounter{biburlnumpenalty}{0}
\setcounter{biburlucpenalty}{0}
\setcounter{biburllcpenalty}{0}
\setcounter{smartand}{1}
\setcounter{bbx:relatedcount}{0}
\setcounter{bbx:relatedtotal}{0}
\setcounter{KVtest}{0}
\setcounter{subfigure}{0}
\setcounter{subfigure@save}{4}
\setcounter{lofdepth}{1}
\setcounter{subtable}{0}
\setcounter{subtable@save}{0}
\setcounter{lotdepth}{1}
\setcounter{AM@survey}{0}
\setcounter{float@type}{4}
\setcounter{pp@next@reset}{0}
\setcounter{section@level}{1}
}
