\relax 
\providecommand\hyper@newdestlabel[2]{}
\@writefile{toc}{\contentsline {chapter}{\numberline {7}The Proposed Solution}{29}{chapter.87}}
\@writefile{lof}{\addvspace {10\p@ }}
\@writefile{lot}{\addvspace {10\p@ }}
\newlabel{proposed_sol}{{7}{29}{The Proposed Solution}{chapter.87}{}}
\@writefile{toc}{\contentsline {section}{\numberline {7.1}The Datastructure}{29}{section.88}}
\newlabel{data}{{7.1}{29}{The Datastructure}{section.88}{}}
\@writefile{toc}{\contentsline {section}{\numberline {7.2}Step One : Computing k-mers Occurences in All Files}{29}{section.90}}
\newlabel{step_1}{{7.2}{29}{Step One : Computing k-mers Occurences in All Files}{section.90}{}}
\@writefile{toc}{\contentsline {section}{\numberline {7.3}Step Two : Creating a Table of k-mers}{30}{section.91}}
\newlabel{step_2}{{7.3}{30}{Step Two : Creating a Table of k-mers}{section.91}{}}
\@writefile{toc}{\contentsline {section}{\numberline {7.4}Step Three : Clustering k-mers}{30}{section.92}}
\newlabel{step_3}{{7.4}{30}{Step Three : Clustering k-mers}{section.92}{}}
\@writefile{toc}{\contentsline {subsection}{\numberline {7.4.1}Clustering Method Selection}{31}{subsection.93}}
\newlabel{cluster_method}{{7.4.1}{31}{Clustering Method Selection}{subsection.93}{}}
\@writefile{toc}{\contentsline {subsection}{\numberline {7.4.2}Selecting the Imporant Clusters}{31}{subsection.95}}
\newlabel{important_cat}{{7.4.2}{31}{Selecting the Imporant Clusters}{subsection.95}{}}
\@writefile{lof}{\contentsline {figure}{\numberline {7.1}{\ignorespaces Clusters of k-mers projected to 2D\relax }}{32}{figure.caption.98}}
\newlabel{dbclust}{{7.1}{32}{Clusters of k-mers projected to 2D\relax }{figure.caption.98}{}}
\@writefile{lof}{\contentsline {subfigure}{\numberline{(a)}{\ignorespaces {k = 20, eps = 6, dataset 1}}}{32}{subfigure.1.1}}
\@writefile{lof}{\contentsline {subfigure}{\numberline{(b)}{\ignorespaces {k = 24, eps = 6, dataset 2}}}{32}{subfigure.1.2}}
\@writefile{lof}{\contentsline {subfigure}{\numberline{(c)}{\ignorespaces {k = 25, eps = 10, dataset\nobreakspace {}2}}}{32}{subfigure.1.3}}
\@writefile{lof}{\contentsline {subfigure}{\numberline{(d)}{\ignorespaces {k = 25, eps = 12, dataset\nobreakspace {}2}}}{32}{subfigure.1.4}}
\@writefile{toc}{\contentsline {subsection}{\numberline {7.4.3}Visualizing Results}{32}{subsection.97}}
\@writefile{lof}{\contentsline {figure}{\numberline {7.2}{\ignorespaces Clusters of k-mers projected to 2D including the noise\relax }}{33}{figure.caption.103}}
\newlabel{dbclustnoise}{{7.2}{33}{Clusters of k-mers projected to 2D including the noise\relax }{figure.caption.103}{}}
\@writefile{toc}{\contentsline {section}{\numberline {7.5}Step Four : Clustering Reads}{33}{section.104}}
\newlabel{step_4}{{7.5}{33}{Step Four : Clustering Reads}{section.104}{}}
\@setckpt{Chapters/Chapter7}{
\setcounter{page}{35}
\setcounter{equation}{0}
\setcounter{enumi}{3}
\setcounter{enumii}{0}
\setcounter{enumiii}{0}
\setcounter{enumiv}{0}
\setcounter{footnote}{3}
\setcounter{mpfootnote}{0}
\setcounter{part}{0}
\setcounter{chapter}{7}
\setcounter{section}{5}
\setcounter{subsection}{0}
\setcounter{subsubsection}{0}
\setcounter{paragraph}{0}
\setcounter{subparagraph}{0}
\setcounter{figure}{2}
\setcounter{table}{0}
\setcounter{LT@tables}{0}
\setcounter{LT@chunks}{0}
\setcounter{ContinuedFloat}{0}
\setcounter{parentequation}{0}
\setcounter{Item}{26}
\setcounter{Hfootnote}{4}
\setcounter{bookmark@seq@number}{47}
\setcounter{tabx@nest}{0}
\setcounter{listtotal}{0}
\setcounter{listcount}{0}
\setcounter{liststart}{0}
\setcounter{liststop}{0}
\setcounter{citecount}{0}
\setcounter{citetotal}{0}
\setcounter{multicitecount}{0}
\setcounter{multicitetotal}{0}
\setcounter{instcount}{0}
\setcounter{maxnames}{3}
\setcounter{minnames}{1}
\setcounter{maxitems}{3}
\setcounter{minitems}{1}
\setcounter{citecounter}{0}
\setcounter{savedcitecounter}{0}
\setcounter{uniquelist}{0}
\setcounter{uniquename}{0}
\setcounter{refsection}{0}
\setcounter{refsegment}{0}
\setcounter{maxextratitle}{0}
\setcounter{maxextratitleyear}{0}
\setcounter{maxextradate}{0}
\setcounter{maxextraalpha}{0}
\setcounter{abbrvpenalty}{50}
\setcounter{highnamepenalty}{50}
\setcounter{lownamepenalty}{25}
\setcounter{maxparens}{3}
\setcounter{parenlevel}{0}
\setcounter{mincomprange}{10}
\setcounter{maxcomprange}{100000}
\setcounter{mincompwidth}{1}
\setcounter{afterword}{0}
\setcounter{savedafterword}{0}
\setcounter{annotator}{0}
\setcounter{savedannotator}{0}
\setcounter{author}{0}
\setcounter{savedauthor}{0}
\setcounter{bookauthor}{0}
\setcounter{savedbookauthor}{0}
\setcounter{commentator}{0}
\setcounter{savedcommentator}{0}
\setcounter{editor}{0}
\setcounter{savededitor}{0}
\setcounter{editora}{0}
\setcounter{savededitora}{0}
\setcounter{editorb}{0}
\setcounter{savededitorb}{0}
\setcounter{editorc}{0}
\setcounter{savededitorc}{0}
\setcounter{foreword}{0}
\setcounter{savedforeword}{0}
\setcounter{holder}{0}
\setcounter{savedholder}{0}
\setcounter{introduction}{0}
\setcounter{savedintroduction}{0}
\setcounter{namea}{0}
\setcounter{savednamea}{0}
\setcounter{nameb}{0}
\setcounter{savednameb}{0}
\setcounter{namec}{0}
\setcounter{savednamec}{0}
\setcounter{translator}{0}
\setcounter{savedtranslator}{0}
\setcounter{shortauthor}{0}
\setcounter{savedshortauthor}{0}
\setcounter{shorteditor}{0}
\setcounter{savedshorteditor}{0}
\setcounter{labelname}{0}
\setcounter{savedlabelname}{0}
\setcounter{institution}{0}
\setcounter{savedinstitution}{0}
\setcounter{lista}{0}
\setcounter{savedlista}{0}
\setcounter{listb}{0}
\setcounter{savedlistb}{0}
\setcounter{listc}{0}
\setcounter{savedlistc}{0}
\setcounter{listd}{0}
\setcounter{savedlistd}{0}
\setcounter{liste}{0}
\setcounter{savedliste}{0}
\setcounter{listf}{0}
\setcounter{savedlistf}{0}
\setcounter{location}{0}
\setcounter{savedlocation}{0}
\setcounter{organization}{0}
\setcounter{savedorganization}{0}
\setcounter{origlocation}{0}
\setcounter{savedoriglocation}{0}
\setcounter{origpublisher}{0}
\setcounter{savedorigpublisher}{0}
\setcounter{publisher}{0}
\setcounter{savedpublisher}{0}
\setcounter{language}{0}
\setcounter{savedlanguage}{0}
\setcounter{origlanguage}{0}
\setcounter{savedoriglanguage}{0}
\setcounter{pageref}{0}
\setcounter{savedpageref}{0}
\setcounter{textcitecount}{0}
\setcounter{textcitetotal}{0}
\setcounter{textcitemaxnames}{0}
\setcounter{biburlnumpenalty}{0}
\setcounter{biburlucpenalty}{0}
\setcounter{biburllcpenalty}{0}
\setcounter{smartand}{1}
\setcounter{bbx:relatedcount}{0}
\setcounter{bbx:relatedtotal}{0}
\setcounter{KVtest}{0}
\setcounter{subfigure}{0}
\setcounter{subfigure@save}{4}
\setcounter{lofdepth}{1}
\setcounter{subtable}{0}
\setcounter{subtable@save}{0}
\setcounter{lotdepth}{1}
\setcounter{AM@survey}{0}
\setcounter{section@level}{1}
}
