\relax 
\providecommand\hyper@newdestlabel[2]{}
\@writefile{toc}{\contentsline {chapter}{\numberline {5}Fluorescence Images Segmentation}{15}{chapter.32}}
\@writefile{lof}{\addvspace {10\p@ }}
\@writefile{lot}{\addvspace {10\p@ }}
\newlabel{segmentationchapter}{{5}{15}{Fluorescence Images Segmentation}{chapter.32}{}}
\@writefile{toc}{\contentsline {section}{\numberline {5.1}Otsu Segmentation}{15}{section.33}}
\newlabel{otsu}{{5.1}{15}{Otsu Segmentation}{section.33}{}}
\@writefile{toc}{\contentsline {subsection}{\numberline {5.1.1}Results}{16}{subsection.34}}
\@writefile{toc}{\contentsline {section}{\numberline {5.2}Adaptive Thresholding}{16}{section.35}}
\@writefile{toc}{\contentsline {subsection}{\numberline {5.2.1}Results}{16}{subsection.36}}
\@writefile{toc}{\contentsline {section}{\numberline {5.3}Mean Thresholding}{17}{section.37}}
\newlabel{meanthresh}{{5.3}{17}{Mean Thresholding}{section.37}{}}
\@writefile{toc}{\contentsline {subsection}{\numberline {5.3.1}Results}{17}{subsection.38}}
\@writefile{toc}{\contentsline {section}{\numberline {5.4}Quantile Threshold}{17}{section.39}}
\newlabel{quantsec}{{5.4}{17}{Quantile Threshold}{section.39}{}}
\@writefile{toc}{\contentsline {subsection}{\numberline {5.4.1}Results}{17}{subsection.40}}
\@writefile{toc}{\contentsline {section}{\numberline {5.5}Combination of Mean and Quantile Thresholds}{18}{section.41}}
\newlabel{combsec}{{5.5}{18}{Combination of Mean and Quantile Thresholds}{section.41}{}}
\@writefile{toc}{\contentsline {subsection}{\numberline {5.5.1}Results}{18}{subsection.42}}
\@writefile{toc}{\contentsline {section}{\numberline {5.6}Maximally Stable Extremal Regions}{18}{section.43}}
\@writefile{toc}{\contentsline {subsection}{\numberline {5.6.1}Results}{18}{subsection.44}}
\@writefile{toc}{\contentsline {section}{\numberline {5.7}Fixed Global Threshold}{18}{section.45}}
\newlabel{globalsec}{{5.7}{18}{Fixed Global Threshold}{section.45}{}}
\@writefile{toc}{\contentsline {subsection}{\numberline {5.7.1}Results}{19}{subsection.46}}
\newlabel{origim}{{5.1a}{20}{Subfigure 5 5.1a}{subfigure.48}{}}
\newlabel{sub@origim}{{(a)}{a}{Subfigure 5 5.1a\relax }{subfigure.48}{}}
\newlabel{Otsuim}{{5.1b}{20}{Subfigure 5 5.1b}{subfigure.49}{}}
\newlabel{sub@Otsuim}{{(b)}{b}{Subfigure 5 5.1b\relax }{subfigure.49}{}}
\newlabel{adapim}{{5.1c}{20}{Subfigure 5 5.1c}{subfigure.50}{}}
\newlabel{sub@adapim}{{(c)}{c}{Subfigure 5 5.1c\relax }{subfigure.50}{}}
\newlabel{filadapim}{{5.1d}{20}{Subfigure 5 5.1d}{subfigure.51}{}}
\newlabel{sub@filadapim}{{(d)}{d}{Subfigure 5 5.1d\relax }{subfigure.51}{}}
\newlabel{meanim}{{5.1e}{20}{Subfigure 5 5.1e}{subfigure.52}{}}
\newlabel{sub@meanim}{{(e)}{e}{Subfigure 5 5.1e\relax }{subfigure.52}{}}
\newlabel{quantim}{{5.1f}{20}{Subfigure 5 5.1f}{subfigure.53}{}}
\newlabel{sub@quantim}{{(f)}{f}{Subfigure 5 5.1f\relax }{subfigure.53}{}}
\@writefile{lof}{\contentsline {figure}{\numberline {5.1}{\ignorespaces Segmentation methods \ref  {otsu} - \ref  {quantsec}}}{20}{figure.caption.47}}
\newlabel{seg1}{{5.1}{20}{Segmentation methods \ref {otsu} - \ref {quantsec}}{figure.caption.47}{}}
\@writefile{lof}{\contentsline {subfigure}{\numberline{(a)}{\ignorespaces {Original Image}}}{20}{subfigure.1.1}}
\@writefile{lof}{\contentsline {subfigure}{\numberline{(b)}{\ignorespaces {Otsu}}}{20}{subfigure.1.2}}
\@writefile{lof}{\contentsline {subfigure}{\numberline{(c)}{\ignorespaces {Adaptive Threshold}}}{20}{subfigure.1.3}}
\@writefile{lof}{\contentsline {subfigure}{\numberline{(d)}{\ignorespaces {Filled Adaptive Threshold}}}{20}{subfigure.1.4}}
\@writefile{lof}{\contentsline {subfigure}{\numberline{(e)}{\ignorespaces {Mean Threshold}}}{20}{subfigure.1.5}}
\@writefile{lof}{\contentsline {subfigure}{\numberline{(f)}{\ignorespaces { Quantile 0.8 Threshold}}}{20}{subfigure.1.6}}
\newlabel{combim}{{5.2a}{21}{Subfigure 5 5.2a}{subfigure.55}{}}
\newlabel{sub@combim}{{(a)}{a}{Subfigure 5 5.2a\relax }{subfigure.55}{}}
\newlabel{mserim}{{5.2b}{21}{Subfigure 5 5.2b}{subfigure.56}{}}
\newlabel{sub@mserim}{{(b)}{b}{Subfigure 5 5.2b\relax }{subfigure.56}{}}
\newlabel{fixim}{{5.2c}{21}{Subfigure 5 5.2c}{subfigure.57}{}}
\newlabel{sub@fixim}{{(c)}{c}{Subfigure 5 5.2c\relax }{subfigure.57}{}}
\newlabel{seg2}{{\caption@xref {seg2}{ on input line 198}}{21}{Results}{subfigure.57}{}}
\@writefile{lof}{\contentsline {figure}{\numberline {5.2}{\ignorespaces Segmentation methods \ref  {combsec} - \ref  {globalsec}}}{21}{figure.caption.54}}
\@writefile{lof}{\contentsline {subfigure}{\numberline{(a)}{\ignorespaces {Mean and Quantile Combined Threshold}}}{21}{subfigure.2.1}}
\@writefile{lof}{\contentsline {subfigure}{\numberline{(b)}{\ignorespaces {Maximal Stable Region}}}{21}{subfigure.2.2}}
\@writefile{lof}{\contentsline {subfigure}{\numberline{(c)}{\ignorespaces {Fixed Global Threshold}}}{21}{subfigure.2.3}}
\@writefile{toc}{\contentsline {section}{\numberline {5.8}Final Evaluation}{22}{section.58}}
\@setckpt{Chapters/Chapter2}{
\setcounter{page}{23}
\setcounter{equation}{0}
\setcounter{enumi}{3}
\setcounter{enumii}{0}
\setcounter{enumiii}{0}
\setcounter{enumiv}{0}
\setcounter{footnote}{0}
\setcounter{mpfootnote}{0}
\setcounter{part}{0}
\setcounter{chapter}{5}
\setcounter{section}{8}
\setcounter{subsection}{0}
\setcounter{subsubsection}{0}
\setcounter{paragraph}{0}
\setcounter{subparagraph}{0}
\setcounter{figure}{2}
\setcounter{table}{0}
\setcounter{LT@tables}{0}
\setcounter{LT@chunks}{0}
\setcounter{ContinuedFloat}{0}
\setcounter{parentequation}{0}
\setcounter{Item}{10}
\setcounter{Hfootnote}{0}
\setcounter{bookmark@seq@number}{25}
\setcounter{tabx@nest}{0}
\setcounter{listtotal}{0}
\setcounter{listcount}{0}
\setcounter{liststart}{0}
\setcounter{liststop}{0}
\setcounter{citecount}{0}
\setcounter{citetotal}{0}
\setcounter{multicitecount}{0}
\setcounter{multicitetotal}{0}
\setcounter{instcount}{80}
\setcounter{maxnames}{3}
\setcounter{minnames}{1}
\setcounter{maxitems}{3}
\setcounter{minitems}{1}
\setcounter{citecounter}{0}
\setcounter{savedcitecounter}{0}
\setcounter{uniquelist}{0}
\setcounter{uniquename}{0}
\setcounter{refsection}{0}
\setcounter{refsegment}{0}
\setcounter{maxextratitle}{0}
\setcounter{maxextratitleyear}{0}
\setcounter{maxextradate}{0}
\setcounter{maxextraalpha}{0}
\setcounter{abbrvpenalty}{50}
\setcounter{highnamepenalty}{50}
\setcounter{lownamepenalty}{25}
\setcounter{maxparens}{3}
\setcounter{parenlevel}{0}
\setcounter{mincomprange}{10}
\setcounter{maxcomprange}{100000}
\setcounter{mincompwidth}{1}
\setcounter{afterword}{0}
\setcounter{savedafterword}{0}
\setcounter{annotator}{0}
\setcounter{savedannotator}{0}
\setcounter{author}{0}
\setcounter{savedauthor}{0}
\setcounter{bookauthor}{0}
\setcounter{savedbookauthor}{0}
\setcounter{commentator}{0}
\setcounter{savedcommentator}{0}
\setcounter{editor}{0}
\setcounter{savededitor}{0}
\setcounter{editora}{0}
\setcounter{savededitora}{0}
\setcounter{editorb}{0}
\setcounter{savededitorb}{0}
\setcounter{editorc}{0}
\setcounter{savededitorc}{0}
\setcounter{foreword}{0}
\setcounter{savedforeword}{0}
\setcounter{holder}{0}
\setcounter{savedholder}{0}
\setcounter{introduction}{0}
\setcounter{savedintroduction}{0}
\setcounter{namea}{0}
\setcounter{savednamea}{0}
\setcounter{nameb}{0}
\setcounter{savednameb}{0}
\setcounter{namec}{0}
\setcounter{savednamec}{0}
\setcounter{translator}{0}
\setcounter{savedtranslator}{0}
\setcounter{shortauthor}{0}
\setcounter{savedshortauthor}{0}
\setcounter{shorteditor}{0}
\setcounter{savedshorteditor}{0}
\setcounter{labelname}{0}
\setcounter{savedlabelname}{0}
\setcounter{institution}{0}
\setcounter{savedinstitution}{0}
\setcounter{lista}{0}
\setcounter{savedlista}{0}
\setcounter{listb}{0}
\setcounter{savedlistb}{0}
\setcounter{listc}{0}
\setcounter{savedlistc}{0}
\setcounter{listd}{0}
\setcounter{savedlistd}{0}
\setcounter{liste}{0}
\setcounter{savedliste}{0}
\setcounter{listf}{0}
\setcounter{savedlistf}{0}
\setcounter{location}{0}
\setcounter{savedlocation}{0}
\setcounter{organization}{0}
\setcounter{savedorganization}{0}
\setcounter{origlocation}{0}
\setcounter{savedoriglocation}{0}
\setcounter{origpublisher}{0}
\setcounter{savedorigpublisher}{0}
\setcounter{publisher}{0}
\setcounter{savedpublisher}{0}
\setcounter{language}{0}
\setcounter{savedlanguage}{0}
\setcounter{origlanguage}{0}
\setcounter{savedoriglanguage}{0}
\setcounter{pageref}{0}
\setcounter{savedpageref}{0}
\setcounter{textcitecount}{0}
\setcounter{textcitetotal}{0}
\setcounter{textcitemaxnames}{0}
\setcounter{biburlnumpenalty}{0}
\setcounter{biburlucpenalty}{0}
\setcounter{biburllcpenalty}{0}
\setcounter{smartand}{1}
\setcounter{bbx:relatedcount}{0}
\setcounter{bbx:relatedtotal}{0}
\setcounter{KVtest}{0}
\setcounter{subfigure}{0}
\setcounter{subfigure@save}{3}
\setcounter{lofdepth}{1}
\setcounter{subtable}{0}
\setcounter{subtable@save}{0}
\setcounter{lotdepth}{1}
\setcounter{AM@survey}{0}
\setcounter{float@type}{4}
\setcounter{section@level}{1}
}
